Place,Name,Sex,Division,BirthDate,BirthYear,Country,WeightClassKg,BodyweightKg,Squat1Kg,Squat2Kg,Squat3Kg,Best3SquatKg,Bench1Kg,Bench2Kg,Bench3Kg,Best3BenchKg,Deadlift1Kg,Deadlift2Kg,Deadlift3Kg,Best3DeadliftKg,TotalKg,Event,Equipment
1,Chong Eu Gene,M,Open,1998-11-16,,Malaysia,59,58.35,205,220,225.5,225.5,127.5,-137.5,-137.5,127.5,210,225,-230,225,578,SBD,Raw
2,Pradeep S.sumudu,M,Open,1989-01-06,,Sri Lanka,59,57.75,190,195,202.5,202.5,120,125,127.5,127.5,225,235,-240,235,565,SBD,Raw
3,Mehrdad Zafari,M,Open,1989-11-23,,Iran,59,58.6,192.5,200,-207.5,200,120,125,127.5,127.5,225,-235,-240,225,552.5,SBD,Raw
4,Ibnu Ayyub,M,Open,1992-09-14,,Brunei,59,58.8,185,195,-200,195,110,117.5,-120,117.5,212.5,222.5,230,230,542.5,SBD,Raw
5,Chia-Heng Hou,M,Open,1989-11-11,,Taiwan,59,58.15,195,205,-207.5,205,110,115,-117.5,115,220,-232.5,-232.5,220,540,SBD,Raw
6,Kenneth Kaden Chin Yu Wai,M,Open,1990-08-27,,Malaysia,59,58.5,172.5,185,190,190,102.5,110,115,115,202.5,220,235,235,540,SBD,Raw
7,Josef Perillo Adrian,M,Open,1997-06-24,,Philippines,59,58.9,-165,165,-175,165,117.5,-122.5,-122.5,117.5,235,245,-258,245,527.5,SBD,Raw
8,Midhun Joseph,M,Open,1986-08-12,,India,59,59,-185,185,-195,185,107.5,112.5,,112.5,-215,215,-227.5,215,512.5,SBD,Raw
9,Ispandiyar Kairzhan,M,Open,1997-06-16,,Kazakhstan,59,58.4,172.5,185,-190,185,117.5,-122.5,-122.5,117.5,190,205,-215,205,507.5,SBD,Raw
10,Eric Cacabelos Axel John,M,Open,1999-11-11,,Philippines,59,58,-160,167.5,170,170,100,-102.5,,100,210,-220,-220,210,480,SBD,Raw
11,Hakim Bin Azahar Muhammad,M,Open,1991-12-05,,Thailand,59,58.5,140,-150,155,155,135,-142.5,-145,135,177.5,190,-200,190,480,SBD,Raw
1,Kasemsand Senumong,M,Open,1995-02-20,,Thailand,66,65.35,237.5,-247.5,-256,237.5,140,145,-150,145,260,290,-308,290,672.5,SBD,Raw
2,Chaai Ong Wei,M,Open,1995-08-28,,Singapore,66,65.05,215,-225,230,230,120,127.5,132.5,132.5,270,282.5,-290,282.5,645,SBD,Raw
3,Xin Miao Koh,M,Open,1998-07-11,,Singapore,66,65.45,195,220,235,235,127.5,135,142.5,142.5,240,260,-275,260,637.5,SBD,Raw
4,Eric Smulders,M,Open,1989-06-21,,Thailand,66,65.55,207.5,217.5,222.5,222.5,137.5,145,147.5,147.5,230,245,-255,245,615,SBD,Raw
5,Ahmad Hisham Akmal Bin Ahmad Tarmizi,M,Open,1996-10-21,,Malaysia,66,65.55,212.5,222.5,-232.5,222.5,125,-130,-130,125,-240,240,-255,240,587.5,SBD,Raw
1,Yakov Ionin,M,Open,1986-03-13,,Kazakhstan,74,73.45,250,262.5,267.5,267.5,170,175,-177.5,175,-282.5,282.5,290,290,732.5,SBD,Raw
2,Aren Joy Fernandes,M,Open,2001-09-14,,India,74,74,232.5,245,-250,245,140,-150,150,150,295,312.5,-328.5,312.5,707.5,SBD,Raw
3,Cheong Cheng Wen,M,Open,1997-08-03,,Singapore,74,73.85,227.5,240,247.5,247.5,152.5,157.5,160,160,295,-312.5,-312.5,295,702.5,SBD,Raw
4,Kelvin Yeoh Han Pin,M,Open,1989-02-23,,Malaysia,74,73.5,225,237.5,242.5,242.5,147.5,152.5,155,155,270,282.5,-295,282.5,680,SBD,Raw
5,Mansour Almarzooqi,M,Open,1995-02-03,,UAE,74,74,235,-242.5,-242.5,235,167.5,172.5,177.5,177.5,225,242.5,-250,242.5,655,SBD,Raw
6,Erwin Relos Ryant,M,Open,1997-03-11,,Philippines,74,71.85,215,-225,225,225,162.5,167.5,-170,167.5,260,-270,-270,260,652.5,SBD,Raw
7,Arji Balakrishna,M,Open,1995-10-20,,India,74,72.4,225,-242.5,-252.5,225,135,145,-150,145,230,240,-245,240,610,SBD,Raw
8,Kevin On,M,Open,1993-09-07,,Brunei,74,73,195,205,212.5,212.5,135,142.5,-147.5,142.5,217.5,-230,-230,217.5,572.5,SBD,Raw
9,Peter Troy Ho,M,Open,1990-09-29,,Indonesia,74,73.35,182.5,195,200,200,102.5,110,-117.5,110,245,255,260,260,570,SBD,Raw
10,Midhun Anilkumar,M,Open,1994-06-25,,Qatar,74,72.6,180,192.5,-200,192.5,120,127.5,130,130,220,227.5,235,235,557.5,SBD,Raw
11,Jonathan Lim,M,Open,1993-12-10,,Brunei,74,70.35,195,207.5,212.5,212.5,107.5,115,-120,115,207.5,220,225,225,552.5,SBD,Raw
12,Patt Sriprayoon,M,Open,1994-10-22,,Thailand,74,71.75,162.5,175,-182.5,175,115,122.5,-130,122.5,220,232.5,-245,232.5,530,SBD,Raw
13,Tian Qiu,M,Open,1992-02-25,,China,74,66.9,170,180,-190,180,140,-147.5,-147.5,140,180,195,-200,195,515,SBD,Raw
14,Azat Salmen,M,Open,1989-02-08,,Kazakhstan,74,73.45,100,,,100,172.5,177.5,180,180,100,,,100,380,SBD,Raw
DQ,Clinton Lee #1,M,Open,1993-03-08,,Singapore,74,73.4,245,257.5,262.5,262.5,162.5,167.5,170,170,-290,-290,-300,,,SBD,Raw
1,Qun Pang Ashton Xue,M,Open,1995-10-02,,Singapore,83,82.5,260,272.5,282.5,282.5,142.5,150,-155,150,287.5,307.5,-325.5,307.5,740,SBD,Raw
2,Tetsuo Nakagawa,M,Open,1997-09-07,,Japan,83,81.05,252.5,262.5,272.5,272.5,155,-162.5,-162.5,155,290,307.5,-320,307.5,735,SBD,Raw
3,Kanta Yamashita,M,Open,1999-04-05,,Japan,83,81.5,252.5,265,275,275,152.5,160,-165,160,265,280,-285,280,715,SBD,Raw
4,Gareth Wong,M,Open,1998-04-02,,Singapore,83,82.6,230,242.5,250,250,150,157.5,165,165,275,287.5,300,300,715,SBD,Raw
5,Tianyu Xiao,M,Open,1995-02-24,,China,83,81.2,260,-275,-275,260,150,155,-157.5,155,290,-300,-300,290,705,SBD,Raw
6,Christophe Boulos,M,Open,1996-08-20,,Qatar,83,82.65,255,-265,265,265,130,137.5,140,140,260,280,292.5,292.5,697.5,SBD,Raw
7,Saleh Shetewi,M,Open,1999-08-29,,Saudi Arabia,83,82.9,227.5,-237.5,237.5,237.5,145,-152.5,152.5,152.5,267.5,287.5,302.5,302.5,692.5,SBD,Raw
8,Ramir Khalilov,M,Open,1998-10-06,,Kazakhstan,83,80.9,260,275,-282.5,275,150,157.5,-162.5,157.5,250,-272.5,-272.5,250,682.5,SBD,Raw
9,Eric Chin Haw Wai,M,Open,1993-12-23,,Malaysia,83,82,235,245,250,250,145,152.5,155,155,265,272.5,277.5,277.5,682.5,SBD,Raw
10,Acton McKenley,M,Open,1989-05-08,,Hong Kong,83,82.1,-255,270,272.5,272.5,130,135,140,140,270,-287.5,-302.5,270,682.5,SBD,Raw
11,Mickey Lim,M,Open,1996-03-07,,Brunei,83,81.25,227.5,-235,235,235,165,-172.5,172.5,172.5,230,242.5,-250,242.5,650,SBD,Raw
12,Kuanyshbay Tulegenov,M,Open,1998-04-22,,Kazakhstan,83,81.9,200,220,,220,167.5,175,-177.5,175,170,,,170,565,SBD,Raw
13,Hao Li,M,Open,1994-03-08,,China,83,81.6,170,180,195,195,95,100,105,105,180,200,210,210,510,SBD,Raw
1,Mehdi Tahmasebi Boldaji,M,Open,1991-10-25,,Iran,93,92.8,285,-292.5,295,295,195,-202.5,-202.5,195,300,317.5,-331,317.5,807.5,SBD,Raw
2,Chai Bor Ren,M,Open,1996-05-22,,Malaysia,93,92.2,280,-295,-295,280,180,187.5,190,190,300,315,-337.5,315,785,SBD,Raw
3,Fadlullah Muhammad,M,Open,1996-07-01,,Singapore,93,89.7,260,275,282.5,282.5,180,187.5,-192.5,187.5,275,285,302.5,302.5,772.5,SBD,Raw
4,Yue Wu,M,Open,1995-02-15,,China,93,91.6,285,-300,-300,285,165,172.5,177.5,177.5,285,305,310,310,772.5,SBD,Raw
5,Shaun Andrew Eu Wei Tsen,M,Open,1994-05-14,,Malaysia,93,90.35,242.5,257.5,-267.5,257.5,172.5,182.5,185,185,255,270,277.5,277.5,720,SBD,Raw
6,Nestor Redulla Jr,M,Open,1995-01-29,,Philippines,93,93,250,-257.5,-257.5,250,-150,150,-155,150,295,305,-312.5,305,705,SBD,Raw
7,Merlin Viet,M,Open,1988-06-17,,Australia,93,92.9,235,250,262.5,262.5,150,160,-165,160,240,260,272.5,272.5,695,SBD,Raw
8,Yosuke Horiguchi,M,Open,1993-04-27,,Japan,93,92.9,232.5,-250,250,250,172.5,177.5,182.5,182.5,225,235,245,245,677.5,SBD,Raw
9,Hajime Nagai,M,Open,1984-02-18,,Japan,93,89.45,240,252.5,-260,252.5,130,135,140,140,260,280,-300,280,672.5,SBD,Raw
10,Andi Aziz,M,Open,1995-12-21,,Brunei,93,92.4,235,245,-247.5,245,127.5,-135,135,135,275,-287.5,-287.5,275,655,SBD,Raw
11,Haoyu Cai,M,Open,1994-02-12,,China,93,91.1,240,-242.5,-255,240,165,-175,175,175,225,235,-240,235,650,SBD,Raw
12,Anas Elgamal,M,Open,1996-07-03,,Qatar,93,86.8,190,210,225,225,120,125,127.5,127.5,250,265,280,280,632.5,SBD,Raw
DQ,Adiyatumur Enkhbaatar,M,Open,1995-03-02,,Mongolia,93,90.45,265,-275,-280,265,167.5,-172.5,,167.5,-250,,,,,SBD,Raw
1,Alireza Rezaei,M,Open,1989-01-07,,Iran,105,104.8,-310,310,321.5,321.5,200,-205,205,205,275,285,-295,285,811.5,SBD,Raw
2,Saleh Abou Alzahab,M,Open,1990-01-22,,Saudi Arabia,105,101.8,255,270,280,280,160,170,175,175,307.5,325,330,330,785,SBD,Raw
3,Renzo Cahilig Rafael,M,Open,1996-07-04,,Philippines,105,104.2,275,290,-295,290,177.5,185,-187.5,185,300,310,-317.5,310,785,SBD,Raw
4,Loh Cen Hao,M,Open,1999-04-20,,Malaysia,105,104.7,290,310,-320,310,175,-182.5,182.5,182.5,290,-310,-310,290,782.5,SBD,Raw
5,Singh Sourav Kumar,M,Open,2000-02-28,,India,105,104.4,277.5,290,-295,290,175,-185,-185,175,285,300,-312.5,300,765,SBD,Raw
6,Uvindu Jayasinghe,M,Open,1996-05-19,,Sri Lanka,105,104,275,287.5,300,300,160,170,-177.5,170,280,-282.5,292.5,292.5,762.5,SBD,Raw
7,Hossein Alafbehbahani,M,Open,1990-01-01,,Iran,105,104.15,270,280,290,290,-160,160,-167.5,160,292.5,310,-337.5,310,760,SBD,Raw
8,Abdallah Mohamed,M,Open,1994-07-25,,Qatar,105,102.55,245,255,267.5,267.5,160,165,-170,165,290,305,317.5,317.5,750,SBD,Raw
9,Soushi Tomomatsu,M,Open,1997-08-12,,Japan,105,103.85,-250,250,265,265,175,185,-192.5,185,280,300,-312.5,300,750,SBD,Raw
10,Askar Turysbekov,M,Open,1991-04-18,,Kazakhstan,105,100.55,275,287.5,-300,287.5,177.5,185,-192.5,185,275,-285,,275,747.5,SBD,Raw
11,Eugene Tan Darryl,M,Open,1996-05-27,,Singapore,105,104.9,242.5,260,270,270,162.5,172.5,-177.5,172.5,275,292.5,-305,292.5,735,SBD,Raw
12,Mohamed Medany,M,Open,1988-06-14,,Qatar,105,95.6,250,252.5,257.5,257.5,172.5,-182.5,182.5,182.5,255,270,282.5,282.5,722.5,SBD,Raw
13,Ming Lau,M,Open,1998-06-16,,Brunei,105,103.65,252.5,265,272.5,272.5,155,160,-165,160,275,290,-300,290,722.5,SBD,Raw
14,Nandu K C,M,Open,1995-07-08,,India,105,100.95,225,240,,240,157.5,-162.5,,157.5,250,,,250,647.5,SBD,Raw
DQ,Denis Rybka,M,Open,1985-05-20,,Kazakhstan,105,105,265,275,280,280,-210,-210,-210,,,,,,,SBD,Raw
1,Sen Yang,M,Open,1994-08-14,,Taiwan,120,117.45,315,330,342.5,342.5,220,235,240.5,240.5,300,315,-327.5,315,898,SBD,Raw
2,Danil Fedoryak,M,Open,1990-06-05,,Kazakhstan,120,117.3,300,310,315,315,195,202.5,205,205,315,332.5,-378,332.5,852.5,SBD,Raw
3,Mohammad Morad Niay Shirjouposht,M,Open,1988-01-23,,Iran,120,119.8,325,332.5,341,341,190,-197.5,-197.5,190,300,320,-335,320,851,SBD,Raw
4,Taiki Yamakawa,M,Open,1996-05-23,,Japan,120,119.75,285,300,310,310,-182.5,187.5,-192.5,187.5,292.5,310,-325,310,807.5,SBD,Raw
5,Sang Lee Ho,M,Open,1993-09-19,,Hong Kong,120,117.35,255,-280,285,285,155,165,-170,165,285,305,-320,305,755,SBD,Raw
6,Daniel Kemmink,M,Open,1993-06-27,,Thailand,120,117.35,240,250,260,260,160,170,-175,170,305,315,-325,315,745,SBD,Raw
7,Natthachat Phuangjhan,M,Open,1995-10-12,,Thailand,120,119.85,242.5,255,-265,255,162.5,-170,-170,162.5,237.5,-242.5,242.5,242.5,660,SBD,Raw
8,Abdelrahman Salah,M,Open,1985-05-04,,Qatar,120,111.8,215,225,230,230,127.5,135,-142.5,135,210,220,235,235,600,SBD,Raw
1,Pei-Yu Wang,M,Open,1998-02-20,,Taiwan,120+,147.2,350,375,393,393,205,-220,220,220,325,351,-373,351,964,SBD,Raw
DQ,Pushanthan S,M,Open,1995-09-04,,Sri Lanka,120+,160.15,-305,-335,-355,,165,170,-195,170,255,-272.5,272.5,272.5,,SBD,Raw
1,Damir Amanbayev,M,Sub-Juniors,2005-08-17,,Kazakhstan,53,52.7,117.5,130,137.5,137.5,90,97.5,-100,97.5,172.5,185,195,195,430,SBD,Raw
2,Mohammed Alzahid,M,Sub-Juniors,2005-05-16,,Saudi Arabia,53,52.75,130,140,145,145,90,95,97.5,97.5,165,177.5,-182.5,177.5,420,SBD,Raw
3,Ahmed Sahil Adnan,M,Sub-Juniors,2006-09-13,,India,53,52.3,132.5,140,145,145,77.5,82.5,-87.5,82.5,177.5,187.5,-195,187.5,415,SBD,Raw
1,Matthew Caharop,M,Sub-Juniors,2005-08-06,,Philippines,59,59,170,175,180,180,92.5,97.5,102.5,102.5,225,230.5,235,235,517.5,SBD,Raw
2,Fahad Alghenaim,M,Sub-Juniors,2005-09-10,,Bahrain,59,58.7,155,165,172.5,172.5,90,100,102.5,102.5,230,240,-243,240,515,SBD,Raw
3,Anatoliy Polyachenkov,M,Sub-Juniors,2007-04-06,,Kazakhstan,59,57.8,165,172.5,-177.5,172.5,115,120,125,125,190,195,-200,195,492.5,SBD,Raw
4,Yazeed Althubaiti,M,Sub-Juniors,2005-06-27,,Saudi Arabia,59,56.65,155,-167.5,167.5,167.5,87.5,92.5,95,95,185,197.5,-205,197.5,460,SBD,Raw
5,Korawee Apinyovichien,M,Sub-Juniors,2007-05-02,,Thailand,59,57.4,150,155,160,160,82.5,-87.5,87.5,87.5,170,180,-190,180,427.5,SBD,Raw
1,Kohei Hoshino,M,Sub-Juniors,2005-04-09,,Japan,66,64.6,190,200,210,210,105,112.5,-115,112.5,215,230,-247.5,230,552.5,SBD,Raw
2,Joshua Tan,M,Sub-Juniors,2005-04-16,,Singapore,66,65.15,175,185,192.5,192.5,110,115,120,120,215,230,-238.5,230,542.5,SBD,Raw
3,Wade Castro,M,Sub-Juniors,2006-09-29,,Singapore,66,64.3,157.5,167.5,175,175,115,122.5,127.5,127.5,220,235,-248.5,235,537.5,SBD,Raw
4,Matthew Holmshaw,M,Sub-Juniors,2006-01-09,,Thailand,66,64.4,160,172.5,180,180,97.5,105,110,110,195,210,220,220,510,SBD,Raw
5,Lau Toh Loong,M,Sub-Juniors,2005-12-31,,Malaysia,66,64.1,160,170,177.5,177.5,87.5,90,-95,90,190,-200,-212.5,190,457.5,SBD,Raw
6,Ali Ghorabjazi,M,Sub-Juniors,2005-01-01,,Iran,66,64.75,160,170,-172.5,170,87.5,92.5,-97.5,92.5,175,185,,185,447.5,SBD,Raw
7,Dominic Jugah Anak Gawing,M,Sub-Juniors,2006-03-10,,Malaysia,66,66,160,165,-167.5,165,90,95,-100,95,-175,175,180,180,440,SBD,Raw
1,Yu-Sung Hu,M,Sub-Juniors,2007-01-03,,Taiwan,74,72.15,205,210,215,215,95,105,-110,105,255,265,273.5,273.5,593.5,SBD,Raw
2,Kaito Kanzaki,M,Sub-Juniors,2005-07-26,,Japan,74,73.45,205,212.5,217.5,217.5,107.5,112.5,115,115,230,237.5,-250,237.5,570,SBD,Raw
3,Khaled Alsager,M,Sub-Juniors,2005-08-08,,Kuwait,74,73.5,180,190,195,195,125,130,132.5,132.5,215,225,240,240,567.5,SBD,Raw
4,Wael Amor,M,Sub-Juniors,2005-03-28,,Qatar,74,73.65,190,205,-217.5,205,115,-122.5,-122.5,115,230,245,-252.5,245,565,SBD,Raw
5,Jeremy Sharpe,M,Sub-Juniors,2006-07-01,,Malaysia,74,73.4,190,200,212.5,212.5,130,135,-142.5,135,185,195,212.5,212.5,560,SBD,Raw
6,Nasser Almutawah,M,Sub-Juniors,2005-10-15,,Saudi Arabia,74,73.4,180,187.5,-192.5,187.5,117.5,125,-130,125,225,237.5,-245,237.5,550,SBD,Raw
7,Kaeden Ong,M,Sub-Juniors,2005-11-19,,Singapore,74,73.3,210,220,-230.5,220,90,-95,-95,90,217.5,227.5,235,235,545,SBD,Raw
8,Jasper Tan,M,Sub-Juniors,2005-05-24,,Singapore,74,73.5,170,180,-187.5,180,100,-102.5,-105,100,222.5,240,-252.5,240,520,SBD,Raw
9,Tommy Pavaravadhana,M,Sub-Juniors,2005-09-16,,Thailand,74,73.3,170,180,-190,180,105,112.5,117.5,117.5,205,215,220,220,517.5,SBD,Raw
10,Praneel Maheswaran,M,Sub-Juniors,2006-10-02,,India,74,73.15,175,-182.5,182.5,182.5,102.5,107.5,112.5,112.5,205,-220,220,220,515,SBD,Raw
11,Kittipat Dokmai,M,Sub-Juniors,2005-12-02,,Thailand,74,71.6,180,-185,-185,180,92.5,97.5,-102.5,97.5,210,225,235,235,512.5,SBD,Raw
12,Chu Chi Kin,M,Sub-Juniors,2005-01-31,,Malaysia,74,72.5,160,167.5,175,175,72.5,80,-85,80,220,235,250,250,505,SBD,Raw
1,Nazrin Bin Iskandar Putra,M,Sub-Juniors,2005-01-31,,Malaysia,83,82.3,230,-240,240,240,145,152.5,155,155,240,255,261,261,656,SBD,Raw
2,Gupta Kaushal,M,Sub-Juniors,2006-06-08,,India,83,82.7,-197.5,197.5,212.5,212.5,160,166,-171,166,245,260.5,262,262,640.5,SBD,Raw
3,Ali Al Aradi,M,Sub-Juniors,2005-02-14,,Kuwait,83,81.2,215,222.5,227.5,227.5,-160,160,-167,160,250,-257.5,-260,250,637.5,SBD,Raw
4,Loic Chiang,M,Sub-Juniors,2007-02-11,,Singapore,83,76.6,-202.5,202.5,215,215,140,145,-147.5,145,227.5,242.5,-250,242.5,602.5,SBD,Raw
5,Akarawint Makepoowadol,M,Sub-Juniors,2006-09-20,,Thailand,83,80.4,180,190,200,200,107.5,112.5,115,115,215,222.5,-225,222.5,537.5,SBD,Raw
6,Witcha Jitsajjapong,M,Sub-Juniors,2008-08-28,,Thailand,83,81.05,160,170,-180,170,95,-102.5,-102.5,95,217.5,230,240,240,505,SBD,Raw
1,Oliver Lim,M,Sub-Juniors,2006-02-22,,Singapore,93,92.4,245,258,263,263,155,163,166,166,240,252.5,257.5,257.5,686.5,SBD,Raw
2,Musab Alessa,M,Sub-Juniors,2005-01-11,,Saudi Arabia,93,91.7,245,-259,259,259,125,-132.5,135,135,250,265,277.5,277.5,671.5,SBD,Raw
3,Abdulmohsen Dashti,M,Sub-Juniors,2005-02-20,,Kuwait,93,91.1,202.5,215,-220,215,115,122.5,125,125,250,265,-277.5,265,605,SBD,Raw
4,Muhammad Haris Ikhwan bin Yahaya,M,Sub-Juniors,2005-12-07,,Malaysia,93,92.9,182.5,192.5,200,200,115,120,125,125,225,235,240,240,565,SBD,Raw
5,Johrran Singh Sandu,M,Sub-Juniors,2006-08-18,,Malaysia,83,82.15,170,177.5,185,185,107.5,112.5,117.5,117.5,235,245,-257.5,245,547.5,SBD,Raw
6,Hadif Mohammad Noh Deen,M,Sub-Juniors,2005-12-04,,Singapore,93,91.45,185,190,-192.5,190,100,105,110,110,215,230,235,235,535,SBD,Raw
1,John Endoso,M,Sub-Juniors,2005-07-03,,UAE,105,105,260,287.5,311.5,311.5,160,170,175.5,175.5,255,270,-280,270,757,SBD,Raw
2,Han Tan Wei,M,Sub-Juniors,2005-11-23,,Singapore,105,102.55,225,-240,240,240,127.5,135,140,140,235,250,262.5,262.5,642.5,SBD,Raw
3,Yegor Kuznetsov,M,Sub-Juniors,2006-05-13,,Kazakhstan,105,105,190,200,212.5,212.5,127.5,-137.5,-137.5,127.5,190,205,212.5,212.5,552.5,SBD,Raw
1,Yung-Chin Huang,M,Sub-Juniors,2005-08-24,,Taiwan,120,114.9,260,277.5,300,300,150,160,170,170,250,260,-290,260,730,SBD,Raw
2,Mendis M.sulesh,M,Sub-Juniors,2005-09-08,,Sri Lanka,120,115.4,185,200,212.5,212.5,142.5,-155.5,-155,142.5,230,232.5,247.5,247.5,602.5,SBD,Raw
3,Dmitriy Demidov,M,Sub-Juniors,2005-12-20,,Kazakhstan,120,107.25,-195,195,205,205,130,140,145,145,220,230,-240,230,580,SBD,Raw
4,Edilbek Kalybekov,M,Sub-Juniors,2007-07-13,,Kyrgyzstan,120,111.2,200,210,220,220,120,127.5,132.5,132.5,190,205,220,220,572.5,SBD,Raw
5,Irfan Afiq,M,Sub-Juniors,2005-09-02,,Singapore,120,106.8,180,-187.5,187.5,187.5,100,107.5,112.5,112.5,220,232.5,-250,232.5,532.5,SBD,Raw
1,Guan-Ting Ke,M,Sub-Juniors,2007-06-22,,Taiwan,120+,128.55,280,305.5,315.5,315.5,120,-130,130,130,220,242.5,253,253,698.5,SBD,Raw
2,Baurzhan Baigabulyli,M,Sub-Juniors,2007-08-15,,Kazakhstan,120+,132.7,-110,110,-145,110,70,-85,-85,70,110,130,-150,130,310,SBD,Raw
1,Pingale Kunal,M,Juniors,2000-03-14,,India,53,52.6,142.5,147.5,152.5,152.5,100,-105,105,105,165,175,-177.5,175,432.5,SBD,Raw
2,Fahad Alrefai,M,Juniors,2000-11-02,,Kuwait,53,53,150,155,160,160,82.5,87.5,90,90,167.5,-185,-185,167.5,417.5,SBD,Raw
3,Denis Gurlyov,M,Juniors,2004-06-18,,Kazakhstan,53,52.3,130,137.5,142.5,142.5,87.5,-92.5,-92.5,87.5,167.5,172.5,175,175,405,SBD,Raw
4,Wataru Kasamatsu,M,Juniors,2000-11-23,,Japan,53,52.85,110,120,-125,120,75,-80,80,80,150,160,-175,160,360,SBD,Raw
DQ,Abdulwahid Sembawa,M,Juniors,2002-01-31,,Saudi Arabia,53,52.5,150,157.5,-168,157.5,-95,-95,-95,,197.5,202.5,225,225,,SBD,Raw
1,Laurenz Agabon Alexei,M,Juniors,2003-06-16,,Philippines,59,58.65,177.5,185,190,190,107.5,110,112.5,112.5,237.5,248.5,257.5,257.5,560,SBD,Raw
2,Ryan Yong Chang Sheng,M,Juniors,2000-04-12,,Singapore,59,58.7,182.5,195,200,200,127.5,132.5,-135,132.5,212.5,227.5,-240,227.5,560,SBD,Raw
3,Kanaujiya Shivam,M,Juniors,2003-03-01,,India,59,58.95,167.5,180,187.5,187.5,90,97.5,-102.5,97.5,207.5,222.5,-232.5,222.5,507.5,SBD,Raw
4,Ibrahim Sandogji,M,Juniors,2004-01-30,,Saudi Arabia,59,58.7,155,167.5,175,175,115,-120,-120,115,212.5,-222.5,-222.5,212.5,502.5,SBD,Raw
5,Jovi Pang,M,Juniors,2000-07-28,,Malaysia,59,58.3,170,175,177.5,177.5,82.5,87.5,-90,87.5,217.5,227.5,-235,227.5,492.5,SBD,Raw
6,Mohammad Alqattan,M,Juniors,2000-02-25,,Kuwait,59,58.5,170,180,-185,180,122.5,125,-127.5,125,185,-200,-207.5,185,490,SBD,Raw
7,Muhammad Arif Bin Mohamad Amir,M,Juniors,2000-01-28,,Malaysia,59,58.75,130,-137.5,-137.5,130,77.5,80,82.5,82.5,125,132.5,145,145,357.5,SBD,Raw
1,Tristan Ho,M,Juniors,2002-03-14,,Singapore,66,65.45,220,230.5,234.5,234.5,152.5,157.5,162.5,162.5,242.5,255,-265,255,652,SBD,Raw
2,Taiga Sato,M,Juniors,2000-10-24,,Japan,66,66,202.5,-212.5,-212.5,202.5,140,150,160,160,250,267.5,-280.5,267.5,630,SBD,Raw
3,Keita Nemoto,M,Juniors,2002-02-24,,Japan,66,65.75,200,215,222.5,222.5,122.5,132.5,-140,132.5,220,240,250,250,605,SBD,Raw
4,Majed Fallata,M,Juniors,2001-01-17,,Saudi Arabia,66,64.8,192.5,205,-215,205,120,125,-127.5,125,247.5,-265,-267.5,247.5,577.5,SBD,Raw
5,Hew Yew Joe,M,Juniors,2000-07-21,,Malaysia,66,65.3,205,-212.5,-212.5,205,140,-150,-150,140,215,225,-235,225,570,SBD,Raw
6,Clarence Oh,M,Juniors,2001-06-30,,Singapore,66,65.7,185,195,200,200,122.5,130,132.5,132.5,225,237.5,-242.5,237.5,570,SBD,Raw
7,Ruslan Kozhevnikov,M,Juniors,2003-04-10,,Kazakhstan,66,65.85,190,-200,-200,190,120,125,127.5,127.5,232.5,245,-252.5,245,562.5,SBD,Raw
8,Lee Hong Yuin,M,Juniors,2000-04-12,,Malaysia,66,65.1,177.5,185,190,190,125,130,-135,130,210,-220,-220,210,530,SBD,Raw
9,Siraus Taveeratana,M,Juniors,2000-10-26,,Thailand,66,65.45,165,175,182.5,182.5,112.5,117.5,122.5,122.5,195,205,-210,205,510,SBD,Raw
10,Mateen Amirrudin,M,Juniors,2000-07-26,,Brunei,66,61.4,160,167.5,-172.5,167.5,75,80,-82.5,80,190,200,205,205,452.5,SBD,Raw
1,Bobby Tan,M,Juniors,2000-12-16,,Singapore,74,73.9,225,237.5,242.5,242.5,177.5,187.5,-196,187.5,235,250,-260,250,680,SBD,Raw
2,Emmanuel Sy James,M,Juniors,2001-01-27,,Philippines,74,73.4,-222.5,222.5,-227.5,222.5,132.5,137.5,-142.5,137.5,290,300,-320,300,660,SBD,Raw
3,Lam Cheung Chin,M,Juniors,2001-11-16,,Hong Kong,74,73.35,232.5,247.5,255.5,255.5,125,132.5,137.5,137.5,257.5,-260,-287.5,257.5,650.5,SBD,Raw
4,Teoh Jiuun Yi,M,Juniors,2000-09-01,,Malaysia,74,71.6,217.5,225,-230,225,140,145,-147.5,145,257.5,267.5,275,275,645,SBD,Raw
5,Sean Por,M,Juniors,2000-08-04,,Singapore,74,72,210,-217.5,217.5,217.5,150,155,-157.5,155,250,265,-280,265,637.5,SBD,Raw
6,S Sibindas,M,Juniors,2000-06-08,,India,74,73.85,195,210,220,220,120,130,135,135,275,-285,-285,275,630,SBD,Raw
7,Bader Abul,M,Juniors,2003-12-22,,Kuwait,74,72.9,205,-212.5,212.5,212.5,137.5,-140,140,140,245,252.5,-257.5,252.5,605,SBD,Raw
8,Firman Fahdilah Anggi,M,Juniors,2000-11-19,,Indonesia,74,73.25,200,212.5,220,220,117.5,122.5,-127.5,122.5,237.5,250,262.5,262.5,605,SBD,Raw
9,Mayed Alredha,M,Juniors,2001-09-13,,UAE,74,74,192.5,200,207.5,207.5,-162.5,-162.5,162.5,162.5,207.5,220,230,230,600,SBD,Raw
10,Mendis Jenosha,M,Juniors,2000-06-15,,Sri Lanka,74,73.35,230,240,250,250,110,-115,-117.5,110,235,-250,-250,235,595,SBD,Raw
11,Ali Ibran Tasin Muntaka,M,Juniors,2000-04-21,,Bangladesh,74,73.5,195,205,212.5,212.5,95,102.5,,102.5,240,255,-267.5,255,570,SBD,Raw
12,Arrafiu Saad,M,Juniors,2004-11-05,,Bangladesh,74,71.2,185,-202.5,-212.5,185,102.5,110,-115,110,230,252.5,-272.5,252.5,547.5,SBD,Raw
13,Tokito Kandabashi,M,Juniors,2000-05-11,,Japan,74,69.45,190,200,-210,200,120,130,-132.5,130,190,200,210,210,540,SBD,Raw
14,Sandi Yonathan,M,Juniors,2001-09-02,,Indonesia,74,73.05,165,-180,-182.5,165,120,125,-130,125,205,212.5,222.5,222.5,512.5,SBD,Raw
15,Fuad Hirwan,M,Juniors,2000-07-29,,Brunei,74,73.4,152.5,-160,160,160,97.5,105,112.5,112.5,185,197.5,205,205,477.5,SBD,Raw
1,Andre Veraana,M,Juniors,2001-06-11,,Indonesia,83,82.65,260,273,282.5,282.5,175,182.5,188.5,188.5,270,285,-292.5,285,756,SBD,Raw
2,Spencer Chan Lucas,M,Juniors,2000-11-04,,Singapore,83,82.65,222.5,237.5,245,245,152.5,162.5,170,170,267.5,282.5,-295,282.5,697.5,SBD,Raw
3,Jackson Miller #2,M,Juniors,2000-03-22,,Japan,83,82.95,215,225,230,230,137.5,145,150,150,265,282.5,295,295,675,SBD,Raw
4,Raphi Leong,M,Juniors,2000-02-01,,Thailand,83,82.65,210,220,227.5,227.5,137.5,140,-142.5,140,267.5,277.5,-295,277.5,645,SBD,Raw
5,Zeyuan Chen,M,Juniors,2001-07-18,,China,83,82.4,210,220,-230,220,147.5,155,157.5,157.5,240,-255,255,255,632.5,SBD,Raw
6,Ahmad Adam Edmund bin Ahmad Yani,M,Juniors,2000-02-18,,Malaysia,83,82.7,215,230,-235,230,115,-120,-120,115,255,-265,-265,255,600,SBD,Raw
7,Wong Jin Xian,M,Juniors,2000-09-01,,Malaysia,83,80.15,180,190,-195,190,130,-140,-140,130,250,265,-282.5,265,585,SBD,Raw
8,Elbaraa Hagibrahim,M,Juniors,2000-02-07,,Qatar,83,81.55,-180,180,-187.5,180,102.5,107.5,-112.5,107.5,255,-265,-265,255,542.5,SBD,Raw
DQ,Tahmid Adnan,M,Juniors,2004-06-02,,Bangladesh,83,83,-160,175,-190,175,112.5,-117.5,,112.5,,,,,,SBD,Raw
1,Yu-Chan Chien,M,Juniors,2001-11-25,,Taiwan,93,92.85,270,-280,280,280,155,-167.5,172.5,172.5,300,320,-350,320,772.5,SBD,Raw
2,Jason Galauran Mark,M,Juniors,2002-12-21,,Philippines,93,91.55,-255,-260,260,260,165,175,182.5,182.5,280,290,-300,290,732.5,SBD,Raw
3,Jin Seah Woei,M,Juniors,2000-11-02,,Singapore,93,91.65,240,255,-260,255,177.5,187.5,192.5,192.5,275,-290,-290,275,722.5,SBD,Raw
4,Glenn Minnson Khoo,M,Juniors,2000-05-01,,Malaysia,93,90.95,245,255,260,260,180,187.5,-190,187.5,-272.5,272.5,-275,272.5,720,SBD,Raw
5,Rintaro Okano,M,Juniors,2000-02-03,,Japan,93,91.9,250,265,-275,265,142.5,-150,150,150,265,285,295,295,710,SBD,Raw
6,Alejo Nefalar John,M,Juniors,2002-06-14,,Philippines,93,92.35,232.5,250,260,260,152.5,162.5,170,170,247.5,265,275,275,705,SBD,Raw
7,Jing Yi Low,M,Juniors,2004-03-12,,Singapore,93,92.55,235,250,-257.5,250,130,135,140,140,295,310,-320,310,700,SBD,Raw
8,Abdulrahim Baw,M,Juniors,2001-10-14,,Saudi Arabia,93,90.95,210,230,240,240,170,180,185,185,-270,270,-280,270,695,SBD,Raw
9,Mohammad Alhajeri,M,Juniors,2004-08-04,,Kuwait,93,89.95,230,-235,235,235,-170,170,175,175,280,-290,-290,280,690,SBD,Raw
10,Norman Hilman Visser,M,Juniors,2001-12-14,,Malaysia,93,91.95,240,250,255,255,140,147.5,152.5,152.5,265,277.5,-282.5,277.5,685,SBD,Raw
11,Abdulrahman Almarshad,M,Juniors,2001-05-02,,Saudi Arabia,93,89.65,232.5,245,252.5,252.5,130,140,150,150,265,-280,-280,265,667.5,SBD,Raw
12,Danil Kolesnikov,M,Juniors,2001-12-18,,Kazakhstan,93,89.55,230,240,-250,240,150,157.5,162.5,162.5,260,-280,-300,260,662.5,SBD,Raw
13,A Badhusha Sultan,M,Juniors,2001-08-05,,India,93,90.65,-225,230,-237.5,230,142.5,147.5,-152.5,147.5,262.5,272.5,-280,272.5,650,SBD,Raw
14,Elbert Sanantha,M,Juniors,2000-01-23,,Indonesia,93,91.6,210,225,237.5,237.5,130,137.5,147.5,147.5,215,232.5,250,250,635,SBD,Raw
15,Jing Yang,M,Juniors,2000-07-24,,China,93,90.8,245,262.5,275,275,75,80,-82.5,80,250,265,275,275,630,SBD,Raw
16,Ethan Goi,M,Juniors,2003-12-27,,Brunei,93,91.55,225,-232.5,232.5,232.5,110,115,-120,115,220,235,-245,235,582.5,SBD,Raw
DQ,Chaudhary Mannu,M,Juniors,2003-03-05,,India,93,90.5,235,-247.5,-252.5,235,170,-180,-180,170,-270,-285,-300,,,SBD,Raw
1,Đặng Thế Hưng,M,Juniors,2000-01-18,,Vietnam,105,98.5,245,260,272.5,272.5,170,177.5,182.5,182.5,295,297.5,307.5,307.5,762.5,SBD,Raw
2,Hamed Mortezavi,M,Juniors,2000-01-01,,Iran,105,101.15,265,277.5,290,290,140,160,,160,290,305,-315,305,755,SBD,Raw
3,Wayne Chong,M,Juniors,2004-09-03,,Singapore,105,103.6,-250,257.5,265,265,162.5,170,177.5,177.5,265,285,297.5,297.5,740,SBD,Raw
4,Devin Aurelio,M,Juniors,2000-01-29,,Indonesia,105,101.9,255,265,275,275,175,182.5,-190,182.5,265,280,-290,280,737.5,SBD,Raw
5,Singh Prameesh,M,Juniors,2000-02-03,,India,105,103.5,255,257.5,-267.5,257.5,170,180,182.5,182.5,270,282.5,297.5,297.5,737.5,SBD,Raw
6,Anandikka Joeswardhana Abrar,M,Juniors,2000-05-21,,Indonesia,105,101.7,-255,255,-262.5,255,147.5,150,162.5,162.5,300,317,-327,317,734.5,SBD,Raw
7,Faran Baig Mustafa,M,Juniors,2000-11-16,,Pakistan,105,100.4,250,270,-275,270,135,142.5,150,150,270,-290,-290,270,690,SBD,Raw
8,Jay Esmundo Rhodison,M,Juniors,2002-04-07,,Philippines,105,102.45,242.5,247.5,-252.5,247.5,140,150,-157.5,150,260,267.5,275,275,672.5,SBD,Raw
1,Yi-Chiu Wu,M,Juniors,2000-07-07,,Taiwan,120,118,310,330.5,340.5,340.5,170,180,182.5,182.5,310,330,350,350,873,SBD,Raw
2,Vassiliy Chsherbina,M,Juniors,2000-09-25,,Kazakhstan,120,116.55,270,285,297.5,297.5,180,190,-197.5,190,280,295,305,305,792.5,SBD,Raw
3,Emanuel Teodosio Ross,M,Juniors,2002-02-04,,Philippines,120,119.5,290,302.5,,302.5,170,177.5,-182.5,177.5,295,305,-315,305,785,SBD,Raw
4,Yan-Zhen Che,M,Juniors,2000-10-12,,Taiwan,120,119.5,260,-275,275,275,160,170,175,175,270,285,305,305,755,SBD,Raw
1,Mingjie Xu,M,Juniors,2003-03-02,,China,120+,163.45,315,-335,335,335,220,235,-250,235,285,-305,-305,285,855,SBD,Raw
2,Jawad Alzuwayyid,M,Juniors,2003-06-04,,Saudi Arabia,120+,136.25,280,295,-307.5,295,170,175,-180,175,285,-300,-305,285,755,SBD,Raw
3,Abylai Kyrykbayev,M,Juniors,2002-06-10,,Kazakhstan,120+,131.3,255,270,-280,270,165,172.5,177.5,177.5,230,245,252.5,252.5,700,SBD,Raw
4,Najeeb Alkooheji,M,Juniors,2003-10-17,,Bahrain,120+,137,225,-240,240,240,110,115,120,120,275,290,-307.5,290,650,SBD,Raw
5,Jobran Aboughazi,M,Juniors,2000-03-01,,Qatar,120+,135.8,230,245,-252.5,245,115,120,127.5,127.5,235,240,255,255,627.5,SBD,Raw
6,Jiaqi Piao,M,Juniors,2001-04-29,,China,120+,123.15,-120,120,150,150,230,240,-251,240,120,,,120,510,SBD,Raw
1,Silva W.suranga de,M,Masters 1,1981-04-21,,Sri Lanka,66,64.2,105,110,120,120,70,77.5,82.5,82.5,160,175,180,180,382.5,SBD,Raw
1,Ching-Hong Feng,M,Masters 1,1978-07-04,,Taiwan,74,72.55,185,-200,200,200,-160.5,160.5,-167.5,160.5,230,242.5,250.5,250.5,611,SBD,Raw
2,Jebin Jacob George,M,Masters 1,1981-07-05,,India,74,73.95,165,180,190,190,100,-105,-105,100,220,232.5,-235,232.5,522.5,SBD,Raw
3,Jonathan Gabriel Wong Hou Keet,M,Masters 1,1982-03-18,,Malaysia,74,72.1,175,185,192.5,192.5,105,110,-112.5,110,205,215,-220,215,517.5,SBD,Raw
4,Tomoaki Katsurada,M,Masters 1,1975-04-30,,Japan,74,73.5,175,187.5,195,195,120,130,135,135,172.5,185,-192.5,185,515,SBD,Raw
5,Dayalan Jeevan,M,Masters 1,1983-11-10,,Malaysia,74,73.3,170,-180,180,180,95,-100,-100,95,215,225,232.5,232.5,507.5,SBD,Raw
6,Mark Enriquez,M,Masters 1,1980-11-01,,Singapore,74,73.35,165,175,182.5,182.5,120,127.5,130,130,185,195,-210,195,507.5,SBD,Raw
7,Natchakasem Vasuwat,M,Masters 1,1981-07-03,,Thailand,74,72.05,-147.5,147.5,155,155,90,95,-97.5,95,195,207.5,215,215,465,SBD,Raw
8,Reza Mostafaeinezhad,M,Masters 1,1980-02-25,,Iran,74,73.6,170,177.5,-182.5,177.5,100,107.5,-112.5,107.5,180,-190,-190,180,465,SBD,Raw
1,Ganbileg Bazarvaani,M,Masters 1,1981-05-24,,Mongolia,83,82,190,207.5,220,220,-140,140,155,155,220,240,-252.5,240,615,SBD,Raw
2,Joshua Sims,M,Masters 1,1982-09-17,,Singapore,83,82.5,172.5,180,187.5,187.5,132.5,140,-160,140,-195,-210,217.5,217.5,545,SBD,Raw
3,Mun Wong Keen,M,Masters 1,1977-12-16,,Singapore,83,81.8,182.5,195,200,200,115,122.5,127.5,127.5,195,207.5,215,215,542.5,SBD,Raw
4,Abootaleb Farahmand,M,Masters 1,1979-03-01,,Iran,83,82.85,185,192.5,200,200,125,-132.5,132.5,132.5,190,200,205,205,537.5,SBD,Raw
5,Phanthep Neamprem,M,Masters 1,1983-06-24,,Thailand,83,81.8,180,-190,-190,180,107.5,112.5,117.5,117.5,200,210,215,215,512.5,SBD,Raw
6,Chandana Thilakarathna,M,Masters 1,1975-02-12,,Sri Lanka,83,82,180,185,190,190,90,92.5,-95,92.5,217.5,225,227.5,227.5,510,SBD,Raw
7,Faisal Alzaabi,M,Masters 1,1978-01-01,,UAE,83,82.45,140,160,-162.5,160,-155,155,160,160,160,170,180,180,500,SBD,Raw
8,Hossein Safari,M,Masters 1,1975-12-22,,Iran,83,82.35,175,185,-192.5,185,97.5,105,,105,180,192.5,-220,192.5,482.5,SBD,Raw
1,Hsin-Yeh Lee,M,Masters 1,1983-02-27,,Taiwan,93,90.85,-250,250,260,260,120,130,135,135,260,270,277.5,277.5,672.5,SBD,Raw
2,Munkhbaatar Baasandorj,M,Masters 1,1981-10-28,,Mongolia,93,92.5,200,225,242.5,242.5,150,,,150,240,-250,-250,240,632.5,SBD,Raw
3,Firas Afani,M,Masters 1,1978-03-28,,Qatar,93,92.25,180,190,200,200,120,127.5,135,135,265,276,290,290,625,SBD,Raw
4,Hiran Fernando,M,Masters 1,1975-08-06,,Sri Lanka,93,91.5,230,240,245,245,125,127.5,-130,127.5,220,232.5,245,245,617.5,SBD,Raw
5,Moses Simiyu Wanyonyi,M,Masters 1,1982-01-20,,Malaysia,93,90.45,195,205,212.5,212.5,120,127.5,135,135,220,232.5,245,245,592.5,SBD,Raw
6,Akshay Mehra,M,Masters 1,1974-08-20,,Singapore,93,92.1,140,147.5,152.5,152.5,90,95,-97.5,95,180,192.5,-200,192.5,440,SBD,Raw
7,Kamran Yarali,M,Masters 1,1980-01-01,,Iran,93,85.1,100,120,-122.5,120,140,150,157.5,157.5,100,130,-132.5,130,407.5,SBD,Raw
1,Ahmed Dawy,M,Masters 1,1983-03-07,,Qatar,105,103.3,260,-272.5,-272.5,260,160,172.5,-180,172.5,275,292.5,-300,292.5,725,SBD,Raw
2,Mohammed Ali Alkhanbouli,M,Masters 1,1980-08-08,,UAE,105,101.95,-240,-250,250,250,160,162.5,-177.5,162.5,280,295,-312.5,295,707.5,SBD,Raw
3,Mehdi Dolatshahi,M,Masters 1,1981-09-21,,Iran,105,103.3,220,-240,-245,220,150,162.5,167.5,167.5,-245,245,260,260,647.5,SBD,Raw
4,Mohammad Nasrul Faiz bin Zulkifli,M,Masters 1,1983-08-31,,Malaysia,105,100.75,-192.5,-192.5,192.5,192.5,137.5,-142.5,142.5,142.5,210,227.5,-240,227.5,562.5,SBD,Raw
5,Yoichi Sasaki,M,Masters 1,1976-07-14,,Japan,105,95,190,202.5,-215,202.5,115,122.5,-125,122.5,190,205,225,225,550,SBD,Raw
1,Javad Javadifar,M,Masters 1,1976-09-21,,Iran,120,118,285,303,,303,170,177.5,180,180,240,255,272.5,272.5,755.5,SBD,Raw
2,P. Mayakrishnan,M,Masters 1,1979-10-19,,India,120,113.2,262.5,275,285,285,152.5,160,162.5,162.5,245,260,270,270,717.5,SBD,Raw
3,Abbas Islamibabaheidari,M,Masters 1,1980-05-30,,Iran,120,109.4,270,285,-290,285,-140,-145,145,145,230,250,260,260,690,SBD,Raw
4,Weerasinghe Darin,M,Masters 1,1983-03-13,,Sri Lanka,120,119.4,240,-255,-260,240,165,172.5,-180,172.5,250,260,-267.5,260,672.5,SBD,Raw
5,Feng Tao,M,Masters 1,1978-09-11,,China,120,112.55,170,182.5,-190,182.5,-125,125,135,135,185,200,-210,200,517.5,SBD,Raw
6,Yuosef Al Hashme,M,Masters 1,1982-01-06,,Qatar,120,118.6,-160,160,170,170,105,112.5,-120,112.5,185,200,205,205,487.5,SBD,Raw
1,Mau-Long Wang,M,Masters 1,1981-07-11,,Taiwan,120+,138.55,265,285,-305,285,155,170,-180,170,225,245,-265,245,700,SBD,Raw
2,Hardiya Yogendra,M,Masters 1,1983-08-17,,India,120+,125.3,215,225,-232.5,225,130,140,145,145,200,220,230,230,600,SBD,Raw
1,Hirokazu Honda,M,Masters 2,1971-12-19,,Japan,74,73.2,180,200,202.5,202.5,100,105,107.5,107.5,190,220,225,225,535,SBD,Raw
2,Tetsuo Koike,M,Masters 2,1970-04-28,,Singapore,74,73.9,165,175,-177.5,175,122.5,130,-135,130,200,215,-232.5,215,520,SBD,Raw
1,Shun Kwok,M,Masters 2,1973-01-08,,Hong Kong,83,81.95,180,190,197.5,197.5,120,127.5,130,130,237.5,252.5,-268,252.5,580,SBD,Raw
2,Mark du Plessis,M,Masters 2,1970-02-19,,Singapore,83,80.75,167.5,180,185,185,87.5,92.5,-97.5,92.5,192.5,207.5,215,215,492.5,SBD,Raw
1,Konstantin Khardin,M,Masters 2,1968-06-07,,Uzbekistan,93,87.6,65,,,65,65,,,65,75,,,75,205,SBD,Raw
1,Yasuo Okamoto,M,Masters 2,1972-05-06,,Japan,105,103.95,200,230,247.5,247.5,155,165,170,170,220,240,-257.5,240,657.5,SBD,Raw
1,Uurtsaikh Bazarsuren,M,Masters 2,1973-09-15,,Mongolia,120+,125.8,190,215,235,235,175,187.5,192.5,192.5,210,232.5,,232.5,660,SBD,Raw
1,Bayar Purev,M,Masters 3,1958-04-25,,Mongolia,74,73.3,80,,,80,80,,,80,80,,,80,240,SBD,Raw
1,Stephen Varady,M,Masters 3,1962-03-18,,Australia,83,82,160,175,-180,175,137.5,145,150,150,200,215,220,220,545,SBD,Raw
2,Seiji Harada,M,Masters 3,1961-04-19,,Japan,83,79.2,165,175,182.5,182.5,110,120,-122.5,120,200,215.5,-220.5,215.5,518,SBD,Raw
1,Shamsul Anuar Bim Ahamad Ibrahim,M,Masters 3,1962-10-21,,Malaysia,93,89.35,145,160,165,165,90,97.5,100,100,190,200,205,205,470,SBD,Raw
1,Paulas Rohan Camillo,M,Masters 3,1962-07-18,,Sri Lanka,105,94.95,90,-110,110,110,70,-82.5,-82.5,70,150,160,170,170,350,SBD,Raw
2,Yuriy Aparin,M,Masters 3,1954-03-14,,Kazakhstan,105,96.8,-60,60,,60,80,85,87.5,87.5,110,125,135,135,282.5,SBD,Raw
DQ,V Hari Krishnan R,M,Masters 3,1962-10-09,,India,120,106.45,160,170,182.5,182.5,90,100,105,105,-180,-180,-180,,,SBD,Raw
1,Rick Lewis #1,M,Masters 3,1960-11-12,,Australia,120+,130.15,230,245,260.5,260.5,140,150,152.5,152.5,260,280,-300.5,280,693,SBD,Raw
1,Kim-Won Pok,M,Masters 4,1940-10-05,,Hong Kong,59,49.6,50,60,65,65,40,45,,45,80,90,100,100,210,SBD,Raw
1,Chien-Lih Hwang,M,Masters 4,1953-03-22,,Taiwan,83,79.35,100,115,120,120,120.5,136.5,-140.5,136.5,100,115,125,125,381.5,SBD,Raw
1,Kairat Turlubekov,M,Masters 4,1948-10-25,,Kazakhstan,93,89.2,125,135,-140,135,90,95,-100,95,145,150,155,155,385,SBD,Raw
1,William Mcgowen,M,Masters 4,1948-04-12,,Philippines,105,96.95,70,80,85,85,50,55,57.5,57.5,-120,120,130,130,272.5,SBD,Raw
1,Alhanouf Altamimi,F,Open,1993-10-26,,Kuwait,47,46.3,115,120,125,125,67.5,70,-72.5,70,145,152.5,157.5,157.5,352.5,SBD,Raw
2,Khoo Sheue Yee,F,Open,1994-11-24,,Malaysia,47,46.35,115,120,122.5,122.5,62.5,65,67.5,67.5,142.5,152.5,-160,152.5,342.5,SBD,Raw
3,Bùi Lan Anh,F,Open,1999-05-22,,Vietnam,47,46.75,107.5,115,-120,115,75,-77.5,-77.5,75,140,150,-160,150,340,SBD,Raw
4,Mei-Xiang Liu,F,Open,1983-06-18,,Taiwan,47,46.5,110,120,-125,120,50,55,60,60,135,147.5,-150,147.5,327.5,SBD,Raw
5,Aura Gonzalvo Angela,F,Open,1997-04-07,,Philippines,47,46.5,112.5,117.5,122.5,122.5,57.5,62.5,-65,62.5,130,135,-140,135,320,SBD,Raw
6,Nour Al Jundi,F,Open,1994-07-01,,Thailand,47,46.15,110,115,117.5,117.5,77.5,-83,-83,77.5,120,-130,-130,120,315,SBD,Raw
7,Mae Villasica Shiela,F,Open,1989-08-02,,Philippines,47,46.1,105,110,,110,57.5,-60,-60,57.5,127.5,132.5,137.5,137.5,305,SBD,Raw
8,Natalie Kuan,F,Open,1990-05-10,,Singapore,47,46.85,95,100,102.5,102.5,57.5,62.5,-67.5,62.5,127.5,135,140,140,305,SBD,Raw
9,Shizue Kokuzawa,F,Open,1961-11-20,,Japan,47,46.5,85,90,95,95,55,-60,-60,55,105,107.5,110,110,260,SBD,Raw
10,Sybil Sohail,F,Open,1991-04-12,,Pakistan,47,46.55,-80,80,87.5,87.5,-40,-40,40,40,90,100,-102.5,100,227.5,SBD,Raw
DQ,Christy See Min Wei,F,Open,1999-10-14,,Malaysia,47,46.05,-70,-77.5,-77.5,,-52.5,-55,-55,,115,120,-130,120,,SBD,Raw
1,Farhanna Farid,F,Open,1992-09-26,,Singapore,52,51.7,127.5,135,-140,135,65,70,72.5,72.5,190,203.5,208,208,415.5,SBD,Raw
2,Ching Stella Audrey Lee Yuen,F,Open,1993-08-05,,Hong Kong,52,51.6,140,145,-148,145,77.5,-82.5,-82.5,77.5,140,145,-152.5,145,367.5,SBD,Raw
3,Anastassiya Lisnichenko,F,Open,1999-02-17,,Kazakhstan,52,51.7,112.5,122.5,127.5,127.5,87.5,92.5,95,95,135,145,-152.5,145,367.5,SBD,Raw
4,Mariam Abbas,F,Open,1987-01-31,,UAE,52,49.65,110,-115,-115,110,72.5,-75,75,75,145,155,160,160,345,SBD,Raw
5,Chau-Long Le,F,Open,1993-08-17,,Vietnam,52,51.8,107.5,112.5,117.5,117.5,72.5,-77.5,-77.5,72.5,135,150,-155,150,340,SBD,Raw
6,Nattacha Nuwaboot,F,Open,1994-09-26,,Thailand,52,51.8,110,115,-120,115,60,-62.5,62.5,62.5,140,147.5,152.5,152.5,330,SBD,Raw
7,Theodora Boumpouka,F,Open,1990-06-24,,Qatar,52,49.2,100,105,-110,105,57.5,60,-62.5,60,-125,127.5,135,135,300,SBD,Raw
8,Abigail Salazar,F,Open,1992-04-25,,Qatar,52,51.5,102.5,-112.5,112.5,112.5,55,-62.5,,55,100,110,130,130,297.5,SBD,Raw
9,Assiya Orazbekova,F,Open,1987-01-30,,Kazakhstan,52,51.85,90,95,100,100,75,-80,80,80,90,100,-110,100,280,SBD,Raw
1,Yen-Tzu Huang,F,Open,1992-10-22,,Taiwan,57,56.75,140,145,150,150,100,110,115.5,115.5,150,165,175,175,440.5,SBD,Raw
2,Haya Al-Qassar,F,Open,1987-11-18,,Kuwait,57,56.5,132.5,137.5,140,140,62.5,67.5,70,70,185,-191.5,-191.5,185,395,SBD,Raw
3,Zhiyin Huang,F,Open,1997-09-17,,China,57,56.6,145,147.5,-155,147.5,67.5,72.5,-75,72.5,165,167.5,170,170,390,SBD,Raw
4,Kaely Wararatchai,F,Open,1990-09-21,,Thailand,57,55.25,112.5,120,125,125,75,77.5,80,80,150,160,170,170,375,SBD,Raw
5,Dewi Tania Meiske,F,Open,1997-08-17,,Indonesia,57,55.85,110,115,117.5,117.5,75,77.5,80,80,155,165,172.5,172.5,370,SBD,Raw
6,Serlie Fatrin,F,Open,1995-01-19,,Indonesia,57,56.55,117.5,125,-130,125,62.5,67.5,70,70,132.5,142.5,150,150,345,SBD,Raw
DQ,Eri Inoue,F,Open,1992-06-19,,Japan,57,56.8,-110,-117.5,-117.5,,55,60,62.5,62.5,130,137.5,142.5,142.5,,SBD,Raw
1,Amanda Seow,F,Open,1990-09-20,,Singapore,63,62.5,147.5,155,160,160,90,95,97.5,97.5,185,190,195,195,452.5,SBD,Raw
2,Natalie Tiong,F,Open,1991-11-14,,Singapore,63,61.4,145,152.5,157.5,157.5,70,75,77.5,77.5,187.5,197.5,205,205,440,SBD,Raw
3,Zahrah Mohammed Al Ammar,F,Open,1989-01-15,,Saudi Arabia,63,62.1,145,152.5,157.5,157.5,75,82.5,85,85,185,192.5,197.5,197.5,440,SBD,Raw
4,Yu-Zih Jheng,F,Open,1992-10-24,,Taiwan,63,61.7,150,160,-165,160,80,-85,-85,80,160,170,-185,170,410,SBD,Raw
5,Donda Kusuma,F,Open,1994-01-03,,India,63,62.8,-142.5,150,155,155,70,77.5,-82.5,77.5,140,152.5,-165,152.5,385,SBD,Raw
6,Wenjing Fu,F,Open,1998-10-18,,China,63,59.7,-140,140,-152.5,140,77.5,82.5,-85,82.5,145,-152.5,160,160,382.5,SBD,Raw
7,Amirah Nursaidah Binti Amir Hamzah,F,Open,1987-09-09,,Malaysia,63,62.5,-142.5,142.5,150,150,-67.5,70,72.5,72.5,-152.5,155,-162.5,155,377.5,SBD,Raw
8,Mayumi Honda,F,Open,1984-04-13,,Japan,63,61.6,115,130,132.5,132.5,-60,60,70,70,130,150,160,160,362.5,SBD,Raw
9,Yee Luk Ho,F,Open,1995-02-07,,Hong Kong,63,58.8,95,102.5,107.5,107.5,55,-60,-60,55,110,120,125,125,287.5,SBD,Raw
DQ,Devina Kamilla Inez,F,Open,1997-06-02,,Indonesia,63,59.8,115,120,127.5,127.5,67.5,-75,-75,67.5,-145,-150,-150,,,SBD,Raw
1,Asel Nurkenova,F,Open,2000-08-14,,Kazakhstan,69,67.4,142.5,150,157.5,157.5,112.5,117.5,123.5,123.5,165,177.5,182.5,182.5,463.5,SBD,Raw
2,Shahla Ghahremani,F,Open,1992-01-11,,Iran,69,68.4,152.5,165,167.5,167.5,77.5,82.5,-85,82.5,160,170,175,175,425,SBD,Raw
3,Hayley Khwang,F,Open,1997-12-21,,Singapore,69,68.2,137.5,145,150,150,85,90,-92.5,90,162.5,172.5,180,180,420,SBD,Raw
4,Chuanmei Yang,F,Open,1992-01-26,,China,69,66.9,135,145,150,150,75,80,82.5,82.5,162.5,175,-182.5,175,407.5,SBD,Raw
5,Erine Alejandro Christine,F,Open,1992-12-20,,Philippines,69,67.6,137.5,142.5,147.5,147.5,77.5,80,-82.5,80,160,165,-170,165,392.5,SBD,Raw
6,Kwan Lam Pui,F,Open,1999-08-03,,Hong Kong,69,65.25,122.5,130,137.5,137.5,75,80,82.5,82.5,155,165,170,170,390,SBD,Raw
7,Rabab Alenezi,F,Open,1997-02-18,,Kuwait,69,67.8,115,125,135,135,80,87.5,-90,87.5,160,162.5,-165,162.5,385,SBD,Raw
8,Chee Liang Yim,F,Open,1995-08-21,,Hong Kong,69,67.5,115,120,125,125,65,-70,70,70,135,145,-152.5,145,340,SBD,Raw
9,Siti NurAzifah Pg Ali,F,Open,1994-11-18,,Brunei,69,67.7,105,115,122.5,122.5,52.5,55,57.5,57.5,110,-117.5,125,125,305,SBD,Raw
1,Joyce Gail Reboton,F,Open,1992-04-04,,Philippines,76,74.85,182.5,187.5,192.5,192.5,95,100,-102.5,100,182.5,192.5,-202.5,192.5,485,SBD,Raw
2,Elham Salimiyan Rizi,F,Open,1986-06-04,,Iran,76,75.65,157.5,165,-177.5,165,85,92.5,97.5,97.5,170,180,192.5,192.5,455,SBD,Raw
3,Shehana Zulazmi,F,Open,1990-11-09,,Singapore,76,75.4,160,167.5,-175,167.5,75,80,82.5,82.5,175,182.5,192.5,192.5,442.5,SBD,Raw
4,Maral Batgerel,F,Open,1997-09-16,,Mongolia,76,74.1,140,152.5,165,165,82.5,-85,-85,82.5,182.5,192.5,-202.5,192.5,440,SBD,Raw
5,Celine Yong,F,Open,1999-03-22,,Malaysia,76,75.05,145,152.5,-160,152.5,75,82.5,-85,82.5,152.5,162.5,175,175,410,SBD,Raw
1,Nour Abouassi,F,Open,1989-01-29,,Qatar,84,83.3,-175,-182.5,182.5,182.5,80,87.5,-90,87.5,170,185,190,190,460,SBD,Raw
2,Tien Xie Thuy,F,Open,1995-08-15,,Singapore,84,81.8,170,177.5,-182.5,177.5,72.5,77.5,80,80,172.5,185,187.5,187.5,445,SBD,Raw
3,Sarah Widjaja,F,Open,1994-06-11,,Singapore,84,81.3,137.5,145,150,150,80,85,87.5,87.5,-180,185,193.5,193.5,431,SBD,Raw
4,Nicole Figueroa Francis,F,Open,1995-05-14,,Philippines,84,79.95,142.5,150,155,155,67.5,75,-77.5,75,180,-190,193,193,423,SBD,Raw
5,Panda Tanaya,F,Open,1997-03-09,,India,84,81.95,-160,-160,160,160,75,80,-85,80,155,-162.5,-162.5,155,395,SBD,Raw
6,Elzani Moulder,F,Open,1992-08-24,,Qatar,84,81.05,135,142.5,-150,142.5,-75,80,-95,80,170,-180,-180,170,392.5,SBD,Raw
DQ,Olessya Kalinkina,F,Open,1985-12-18,,Kazakhstan,84,83.75,-170,172.5,180,180,-115,-115,-115,,170,177.5,187.5,187.5,,SBD,Raw
1,Xeniya Okatenko,F,Open,1994-08-22,,Kazakhstan,84+,112.85,182.5,195,-202.5,195,125,130,-132.5,130,162.5,175,190,190,515,SBD,Raw
2,Minami Satoh,F,Open,1992-08-12,,Japan,84+,108.95,180,200,210,210,-95,95,97.5,97.5,185,-200,-200,185,492.5,SBD,Raw
3,Nathalia Orelda Lee Anak Nick,F,Open,1997-07-26,,Malaysia,84+,144.05,160,170,172.5,172.5,82.5,87.5,90,90,-187.5,187.5,-195,187.5,450,SBD,Raw
4,Raye Tugade Charlene,F,Open,1998-06-15,,Philippines,84+,87,167.5,172.5,-177.5,172.5,80,-82.5,82.5,82.5,145,157.5,-175,157.5,412.5,SBD,Raw
5,Krizelda Oandasan Trina,F,Open,1997-08-07,,Philippines,84+,108.4,-162.5,162.5,170,170,65,-70,70,70,137.5,-142.5,150,150,390,SBD,Raw
1,Darya Leonova,F,Sub-Juniors,2007-09-25,,Kazakhstan,43,42.55,80,87.5,92.5,92.5,50,52.5,-55,52.5,95,105,-110,105,250,SBD,Raw
1,Arina Trempolets,F,Sub-Juniors,2006-07-29,,Kazakhstan,47,46.05,-90,90,97.5,97.5,50,55,-57.5,55,97.5,107.5,117.5,117.5,270,SBD,Raw
2,Fatima Husain,F,Sub-Juniors,2007-11-26,,Bahrain,47,46.3,-80,80,-90,80,45,47.5,-50,47.5,92.5,102.5,-110,102.5,230,SBD,Raw
1,Sherine Hussain,F,Sub-Juniors,2005-12-31,,Bahrain,52,51.65,112.5,-117.5,-117.5,112.5,50,52.5,-55,52.5,147.5,157,-160,157,322,SBD,Raw
2,Abrienda Chan Pei Xin,F,Sub-Juniors,2006-03-12,,Malaysia,52,49.95,-87.5,92.5,100,100,50,55,-57.5,55,122.5,127.5,130,130,285,SBD,Raw
DQ,Nandintsetseg Gantogtokh,F,Sub-Juniors,2005-06-06,,Mongolia,52,51.9,-90,-90,-90,,35,42.5,55,55,115,125,130,130,,SBD,Raw
1,Chloe Tang,F,Sub-Juniors,2005-07-15,,Singapore,57,56.55,142.5,155.5,160.5,160.5,-75,-75,75,75,152.5,165,174,174,409.5,SBD,Raw
2,Yekaterina Bondareva,F,Sub-Juniors,2008-02-20,,Kazakhstan,57,56,100,107.5,112.5,112.5,-52.5,52.5,57.5,57.5,115,130,,130,300,SBD,Raw
1,Yu-Chen Kao,F,Sub-Juniors,2005-12-28,,Taiwan,63,61.15,140,148,150,150,50,-55,55,55,140,145,150,150,355,SBD,Raw
2,Tinn Yong Shermaine Kye,F,Sub-Juniors,2005-08-01,,Singapore,63,58.45,110,117.5,122.5,122.5,47.5,52.5,-55,52.5,150,162.5,170.5,170.5,345.5,SBD,Raw
3,Margarita Guryeva,F,Sub-Juniors,2009-11-28,,Kazakhstan,63,61.5,105,115,122.5,122.5,57.5,62.5,-65,62.5,120,135,140,140,325,SBD,Raw
1,Izabella Makaryan,F,Sub-Juniors,2005-04-02,,Kazakhstan,69,66.8,90,100,-107.5,100,60,-70,72.5,72.5,90,100,105,105,277.5,SBD,Raw
1,Barno Dzhumabaeva,F,Sub-Juniors,2007-01-26,,Kazakhstan,76,75.3,145,150,-160,150,115,-121.5,-121.5,115,160,170,175,175,440,SBD,Raw
2,Viktoria Litvin,F,Sub-Juniors,2006-08-20,,Kazakhstan,76,71.6,100,-105,-105,100,40,47.5,50,50,100,105,-115,105,255,SBD,Raw
1,Mae Santos Sabina,F,Sub-Juniors,2007-01-16,,Philippines,84,78.45,125,135,140,140,57.5,62.5,67.5,67.5,145,155,162.5,162.5,370,SBD,Raw
2,Yekaterina Shestakova,F,Sub-Juniors,2007-01-01,,Kazakhstan,84,82.1,115,125,-130,125,62.5,67.5,70,70,120,130,135,135,330,SBD,Raw
3,Vandana Pilli,F,Sub-Juniors,2006-03-28,,India,84,80.85,130,135,-140,135,35,40,-45,40,110,120,130,130,305,SBD,Raw
1,Hsin-Ying Li,F,Sub-Juniors,2005-08-07,,Taiwan,84+,106.3,150,160,167.5,167.5,70,77.5,-80,77.5,150,162.5,172.5,172.5,417.5,SBD,Raw
2,Sin-Wei Gu,F,Sub-Juniors,2006-06-20,,Taiwan,84+,121.15,180,-190,-190,180,-75,75,-80,75,150,162.5,-170,162.5,417.5,SBD,Raw
1,Veronica Ompod,F,Juniors,2000-01-06,,Philippines,43,42.95,100,110,120,120,47.5,52.5,-55,52.5,110,120,125,125,297.5,SBD,Raw
2,Hoshika Mochiyama,F,Juniors,2001-05-28,,Singapore,43,41.5,85,90,92.5,92.5,45,-47.5,-47.5,45,107.5,115,122.5,122.5,260,SBD,Raw
3,Duratul Ain,F,Juniors,2000-03-25,,Brunei,43,40.45,82.5,87.5,90,90,47.5,50,-52.5,50,110,117.5,,117.5,257.5,SBD,Raw
1,Mae Tabuan Jessa,F,Juniors,2002-12-31,,Philippines,47,47,85,97.5,-102.5,97.5,60,65,68,68,130,142.5,-146.5,142.5,308,SBD,Raw
2,Yu Man Chun,F,Juniors,2000-03-01,,Hong Kong,47,46.9,102.5,107.5,-110,107.5,50,52.5,-55,52.5,140,146,-147,146,306,SBD,Raw
3,Zahoor Ahmed Arifa,F,Juniors,2000-10-16,,Pakistan,47,46.15,95,102.5,-107.5,102.5,55,60,62.5,62.5,125,-140,140,140,305,SBD,Raw
4,Suzanna Tan Faith,F,Juniors,2003-07-04,,Singapore,47,46.5,95,-97.5,97.5,97.5,45,-50,50,50,130,140,147.5,147.5,295,SBD,Raw
5,Choy Yuin Quan,F,Juniors,2000-03-08,,Malaysia,47,46,90,92.5,-95,92.5,37.5,-40,-40,37.5,115,122.5,-125,122.5,252.5,SBD,Raw
1,Lina Alrehaili,F,Juniors,2000-03-25,,Saudi Arabia,52,52,110,120,125,125,67.5,-72.5,72.5,72.5,150,157.5,162.5,162.5,360,SBD,Raw
2,Lee Shu Wei,F,Juniors,2000-08-29,,Malaysia,52,51.65,127.5,132.5,-137.5,132.5,65,-70,-70,65,137.5,-142.5,142.5,142.5,340,SBD,Raw
3,Charlotte Decock,F,Juniors,2000-05-27,,Thailand,52,50.6,100,107.5,-112.5,107.5,57.5,60,-62.5,60,135,140,-150,140,307.5,SBD,Raw
4,Shamma Alhosani #1,F,Juniors,2002-04-29,,UAE,52,51.85,90,95,100,100,72.5,-77.5,77.5,77.5,122.5,130,-137.5,130,307.5,SBD,Raw
5,Sarah Lau,F,Juniors,2001-11-15,,Singapore,52,51.85,92.5,100,105,105,62.5,67.5,70,70,115,122.5,130,130,305,SBD,Raw
6,Alena Gladkova,F,Juniors,2001-02-22,,Kazakhstan,52,52,80,90,-95,90,75,80,-90,80,120,125,,125,295,SBD,Raw
7,Yu-Hsin Chou,F,Juniors,2001-09-22,,Taiwan,52,51.65,97.5,105,-110,105,47.5,52.5,-55,52.5,117.5,127.5,-140,127.5,285,SBD,Raw
1,Yun Chan Day,F,Juniors,2000-08-17,,Singapore,57,56.9,137.5,142.5,145,145,65,67.5,70,70,170,177.5,183.5,183.5,398.5,SBD,Raw
2,Natasha Yap,F,Juniors,2000-07-22,,Singapore,57,56.3,115,122.5,127.5,127.5,67.5,70,72.5,72.5,-155,155,167.5,167.5,367.5,SBD,Raw
3,Jane Erasmo,F,Juniors,2003-04-22,,Philippines,57,55.15,110,120,-125,120,72.5,75,80,80,135,145,-162.5,145,345,SBD,Raw
4,Jiravan Sakamanee,F,Juniors,2000-03-14,,Thailand,57,53.1,110,120,125,125,57.5,60,-62.5,60,132.5,142.5,-160,142.5,327.5,SBD,Raw
DD,Hency Korat,F,Juniors,2001-11-07,,India,63,62.75,160,-167.5,170,170,90,97.5,-100,97.5,150,157.5,-160,157.5,,SBD,Raw
1,Tantanat Ektanopokai,F,Juniors,2000-05-15,,Thailand,63,62.6,92.5,100,-105,100,55,-57.5,57.5,57.5,160,172.5,-175,172.5,330,SBD,Raw
2,Hui Chua Yu,F,Juniors,2000-11-20,,Singapore,63,62.35,107.5,115,-120,115,50,55,57.5,57.5,140,155,-162.5,155,327.5,SBD,Raw
DQ,Ardini Sofri,F,Juniors,2001-11-15,,Brunei,63,61.85,-80,-85,-85,,57.5,60,-62.5,60,-157.5,,,,,SBD,Raw
1,Nigara Abdyrova,F,Juniors,2002-02-27,,Kazakhstan,69,67.1,120,-127.5,130,130,-90,90,95,95,145,155,-160,155,380,SBD,Raw
2,Ying Lee Jia,F,Juniors,2002-06-06,,Singapore,69,65.8,125,132.5,-137.5,132.5,-80,80,85,85,132.5,-142.5,-142.5,132.5,350,SBD,Raw
3,Maha Tahir,F,Juniors,2000-11-27,,Pakistan,69,66.15,122.5,127.5,-132.5,127.5,55,60,-65,60,-147.5,152.5,-155,152.5,340,SBD,Raw
1,Iroda Abdyrova,F,Juniors,2001-02-09,,Kazakhstan,76,74.8,130,-140,140,140,-100,102.5,-105,102.5,160,165,167.5,167.5,410,SBD,Raw
2,Regina Gaas,F,Juniors,2004-06-28,,Kazakhstan,76,71.6,145,155,-162.5,155,72.5,77.5,82.5,82.5,157.5,-162.5,-162.5,157.5,395,SBD,Raw
3,Michelle Lim Tanya,F,Juniors,2000-10-12,,Singapore,76,75.2,120,-130,-130,120,70,75,77.5,77.5,135,145,152.5,152.5,350,SBD,Raw
4,Audria Atmadikoesoemah Safira,F,Juniors,2000-08-29,,Indonesia,76,75.5,-107.5,107.5,112.5,112.5,80,-85,85,85,140,145,150,150,347.5,SBD,Raw
5,Nanaka Kitami,F,Juniors,2000-07-01,,Japan,76,73.2,110,120,127.5,127.5,52.5,57.5,60,60,115,-122.5,122.5,122.5,310,SBD,Raw
1,Ti-Ni Shen,F,Juniors,2000-05-25,,Taiwan,84,82.3,160,170.5,175,175,80,-85,-85,80,150,160,173,173,428,SBD,Raw
2,Qi Chong Ean,F,Juniors,2000-12-01,,Singapore,84,82.25,112.5,-120,-125,112.5,57.5,60,65,65,130,-140,-140,130,307.5,SBD,Raw
3,Gunawardena Shevoni,F,Juniors,2002-10-24,,Sri Lanka,84,82.95,100,-110,-115,100,45,52.5,57.5,57.5,120,135,142.5,142.5,300,SBD,Raw
1,Diana Malykhina,F,Juniors,2003-04-25,,Kazakhstan,84+,114.9,170,200,-220,200,60,80,-100,80,140,170,-185,170,450,SBD,Raw
1,Choo Lee Nha,F,Masters 1,1976-12-25,,Malaysia,47,45.55,65,75,77.5,77.5,30,32.5,-35,32.5,80,90,97.5,97.5,207.5,SBD,Raw
2,Chih-Ying Huang,F,Masters 1,1979-09-11,,Taiwan,47,46.8,-65,65,-77.5,65,30,-35,-35,30,100,107.5,110,110,205,SBD,Raw
1,Thao Pham #1,F,Masters 1,1983-04-22,,Australia,52,51.3,100,105,110,110,62.5,67.5,-70,67.5,130,143,150,150,327.5,SBD,Raw
2,Kingthong Sritao,F,Masters 1,1979-07-11,,Thailand,52,51.65,-105,105,-112.5,105,47.5,-50,-50,47.5,135,-143.5,143.5,143.5,296,SBD,Raw
1,Sharvari Inamdar Dr,F,Masters 1,1983-02-21,,India,57,54.8,125,130,134,134,65,70,72.5,72.5,140,147.5,150,150,356.5,SBD,Raw
2,Jenifer McCombie,F,Masters 1,1982-01-02,,Hong Kong,57,55.55,90,95,-100,95,75,77.5,80.5,80.5,145,155,168,168,343.5,SBD,Raw
1,Berni Ong,F,Masters 1,1982-07-23,,Singapore,63,57.55,100,107.5,-112.5,107.5,65,70,-75,70,140,147.5,150,150,327.5,SBD,Raw
2,May Lim Hsiao Wei,F,Masters 1,1978-05-06,,Malaysia,63,61.25,105,-110,-110,105,50,-52.5,-52.5,50,130,137.5,-142.5,137.5,292.5,SBD,Raw
3,Ng Joon Lian,F,Masters 1,1976-07-21,,Malaysia,63,62.15,97.5,105,110,110,47.5,50,-52.5,50,120,130,-137.5,130,290,SBD,Raw
4,Kim Cofino,F,Masters 1,1977-09-26,,Thailand,63,62.65,95,100,-102.5,100,55,57.5,-60,57.5,122.5,127.5,-135,127.5,285,SBD,Raw
5,Shammi Nasrin,F,Masters 1,1975-07-02,,Bangladesh,63,63,-90,90,107.5,107.5,35,45,47.5,47.5,110,122.5,130,130,285,SBD,Raw
6,Hsi-Yu Chen,F,Masters 1,1981-03-25,,Taiwan,63,62.3,90,95,-97.5,95,47.5,-52.5,-52.5,47.5,120,127.5,130,130,272.5,SBD,Raw
7,Eveline How,F,Masters 1,1974-08-07,,Singapore,63,62.8,75,80,85,85,40,-42.5,45,45,95,105,-110,105,235,SBD,Raw
DQ,Meena Sharma,F,Masters 1,1974-01-01,,India,63,60.95,-122.5,-122.5,-122.5,,65,70,75,75,135,140,-142.5,140,,SBD,Raw
1,Saudi Tan Sze Yin,F,Masters 1,1980-10-24,,Singapore,69,66.45,117.5,125,130,130,67.5,72.5,75,75,145,155,160,160,365,SBD,Raw
2,Bansal Rohini,F,Masters 1,1976-07-05,,India,69,68.1,110,120,122.5,122.5,65,-70,70,70,140,160,-175,160,352.5,SBD,Raw
3,Chia-Chi Chi,F,Masters 1,1975-04-11,,Taiwan,69,64.65,70,-85,-85,70,75,80,-85.5,80,120,130,-135,130,280,SBD,Raw
4,Sriram Parvathi,F,Masters 1,1978-07-12,,India,69,67.2,80,-92.5,-92.5,80,40,45,47.5,47.5,120,127.5,-132.5,127.5,255,SBD,Raw
1,Kamble Mayani Hemant,F,Masters 1,1983-06-20,,India,76,74.8,137.5,145,-150.5,145,75,82.5,-85,82.5,155,162.5,-170.5,162.5,390,SBD,Raw
2,Fatemeh Nayeb Mahdi Abadi,F,Masters 1,1979-07-13,,Iran,76,73.05,85,100,,100,45,55,60,60,120,130,145,145,305,SBD,Raw
1,Yunie Yang,F,Masters 1,1981-06-30,,Singapore,84,83.1,117.5,125,127.5,127.5,75,80,82.5,82.5,147.5,152.5,160,160,370,SBD,Raw
2,Lu Wang #1,F,Masters 1,1983-09-04,,China,84,81.7,140,146.5,-152,146.5,60,-65,65,65,140,147.5,150,150,361.5,SBD,Raw
3,Norleila Hussin,F,Masters 1,1983-08-08,,Malaysia,84,80.8,130,137.5,-140,137.5,62.5,67.5,-70,67.5,145,152.5,-160,152.5,357.5,SBD,Raw
1,Rozana Abdul Razak,F,Masters 1,1981-10-27,,Singapore,84+,95.05,122.5,130,135,135,50,52.5,55,55,160,173,180,180,370,SBD,Raw
2,Sana Nabeel,F,Masters 1,1983-12-13,,Pakistan,84+,101.2,105,115,-120,115,45,50,52.5,52.5,120,135,-145,135,302.5,SBD,Raw
3,Mahapatra Bharati,F,Masters 1,1981-10-23,,India,84+,95.45,-90,-90,90,90,55,-60,-60,55,100,110,115,115,260,SBD,Raw
1,Shu-Min Tsai,F,Masters 2,1967-02-14,,Taiwan,47,45.7,90,97.5,103,103,42.5,-47.5,-47.5,42.5,105,-110,110,110,255.5,SBD,Raw
1,Sara Soto Guzman,F,Masters 2,1966-09-10,,Thailand,63,61.25,110,-115,115,115,62.5,65,70.5,70.5,162.5,-176.5,-176.5,162.5,348,SBD,Raw
2,Michelle Cheam,F,Masters 2,1964-08-12,,Singapore,63,61.45,60,65,67.5,67.5,32.5,35,37.5,37.5,85,92.5,95,95,200,SBD,Raw
1,Alicia Price,F,Masters 2,1970-08-17,,Australia,69,67.6,117.5,125,130,130,65,70,-72.5,70,137.5,145,150,150,350,SBD,Raw
2,Yi-Chen Yu,F,Masters 2,1973-11-26,,Taiwan,69,65.45,-125,125,-130,125,57.5,-62.5,-62.5,57.5,120,130,135,135,317.5,SBD,Raw
3,Dastoor Gitanjali,F,Masters 2,1971-06-18,,India,69,65.5,-110,-110,110,110,-62.5,62.5,67.5,67.5,115,125,-132.5,125,302.5,SBD,Raw
1,Carole Condon,F,Masters 2,1965-06-20,,Australia,76,74.95,117.5,-125,127.5,127.5,-67.5,72.5,75,75,142.5,150,156,156,358.5,SBD,Raw
2,Alison Agnes Rodrigues,F,Masters 2,1965-01-19,,Malaysia,76,75.05,-110,-112.5,112.5,112.5,57.5,62.5,-67.5,62.5,127.5,135,142.5,142.5,317.5,SBD,Raw
1,Elena Khardina,F,Masters 2,1971-07-08,,Uzbekistan,84,78.35,30,,,30,35,40,42.5,42.5,65,80,,80,152.5,SBD,Raw
DQ,Kaul Sujata,F,Masters 2,1973-11-18,,India,84,76.55,-75,-80,-80,,32.5,35,40,40,75,87.5,105,105,,SBD,Raw
1,Marina Altaibaeva,F,Masters 2,1973-12-25,,Kazakhstan,84+,118.95,67.5,72.5,-80,72.5,50,55,57.5,57.5,92.5,107.5,-112.5,107.5,237.5,SBD,Raw
2,Yumiko Urauchi,F,Masters 2,1964-10-16,,Japan,84+,90.5,-67.5,67.5,-85,67.5,47.5,52.5,55,55,87.5,97.5,-115,97.5,220,SBD,Raw
1,Pranee Pascoe,F,Masters 3,1958-08-11,,Thailand,47,46.8,80,85.5,-88,85.5,47.5,50,-53,50,120,124,125.5,125.5,261,SBD,Raw
1,Shigemi Imai,F,Masters 3,1962-02-17,,Japan,52,49.6,70,80,85,85,47.5,-50,-50,47.5,95,105,115,115,247.5,SBD,Raw
1,Wing-Yuk Ip,F,Masters 3,1961-11-11,,Hong Kong,63,62.35,50,60,65,65,50,55,60,60,70,80,90,90,215,SBD,Raw
1,Tsai-Wei Lee,F,Masters 3,1961-07-15,,Taiwan,69,66.95,90,-101,-101,90,40,45,-51,45,100,110,116.5,116.5,251.5,SBD,Raw
1,Mei-Yun Hsu,F,Masters 3,1960-04-15,,Taiwan,76,73.65,70,80,92.5,92.5,35,40,-42.5,40,100,110,117.5,117.5,250,SBD,Raw
1,Peta Day,F,Masters 3,1959-08-18,,Australia,84+,90.3,127.5,135,141,141,62.5,67.5,71.5,71.5,155,165,173,173,385.5,SBD,Raw
1,Bea Toews,F,Masters 4,1944-09-03,,Thailand,52,50.1,-40,-45,45,45,27.5,30,-32.5,30,67.5,72.5,77.5,77.5,152.5,SBD,Raw
2,Ayidah Aziz,F,SOI,,1983,Saudi Arabia,52,51.2,25,-27.5,27.5,27.5,-25,25,-27.5,25,30,45,65,65,117.5,SBD,Raw
1,Azhar Alsinan,F,SOI,,1993,Saudi Arabia,84+,104.2,30,35,40,40,25,27.5,30,30,40,60,72.5,72.5,142.5,SBD,Raw
1,Eiman Alameri,F,SOI,,1993,UAE,57,55.95,40,45,50,50,30,35,-37.5,35,55,65,75,75,160,SBD,Raw
1,Ajay Aarti,F,SOI,,1993,UAE,63,57.25,40,45,-50,45,30,35,-37.5,35,50,60,67.5,67.5,147.5,SBD,Raw
1,MacHhindranath Doke Vaishnavi,F,SOI,,2007,India,63,62.95,57.5,62.5,67.5,67.5,27.5,30,32.5,32.5,67.5,-72.5,-72.5,67.5,167.5,SBD,Raw
2,Dubai Hadhban,F,SOI,,2007,UAE,69,65.6,30,35,40,40,25,27.5,30,30,40,42.5,45,45,115,SBD,Raw
1,Hassan Alhadhariti,M,SOI,,1995,Saudi Arabia,74,72.05,70,90,105,105,40,45,57.5,57.5,90,105,120,120,282.5,SBD,Raw
1,Nasser Aldawsari,M,SOI,,1996,Saudi Arabia,59,56.8,30,-35,35,35,30,32.5,35,35,40,45,47.5,47.5,117.5,SBD,Raw
1,Abdulrahman Alhosani,M,SOI,,1997,UAE,83,82.1,80,85,90,90,70,75,80,80,100,110,120,120,290,SBD,Raw
1,Mohamed Almaazmi,M,SOI,,2000,UAE,59,58.5,50,60,65,65,45,55,60,60,60,70,80,80,205,SBD,Raw
2,Uttam Chavan Utkarsh,M,SOI,,2000,India,83,82.8,70,80,90,90,50,60,-70,60,90,105,137.5,137.5,287.5,SBD,Raw
1,Thirunavukarasu Vishal,M,SOI,,2002,India,59,58.8,100,120,130,130,70,80,90,90,130,150,170,170,390,SBD,Raw
1,Balasaheb Raut Chintamani,M,SOI,,2002,India,93,87.35,130,145,160,160,60,70,75,75,130,150,165,165,400,SBD,Raw
2,Yasir Alshutwi,M,SOI,,2003,Saudi Arabia,83,78.2,25,-27.5,27.5,27.5,25,27.5,-30,27.5,25,30,45,45,100,SBD,Raw
1,Ahmed Mujalli,M,SOI,,2003,Saudi Arabia,93,90.05,50,60,70,70,40,45,-57.5,45,75,85,95,95,210,SBD,Raw
1,Samrat Sengupta Prithvi,M,SOI,,2006,India,66,63.3,80,85,90,90,50,55,57.5,57.5,85,95,100,100,247.5,SBD,Raw
1,Rakan Alotaibi,M,SOI,,2007,Saudi Arabia,105,104.6,25,27.5,30,30,25,-27.5,27.5,27.5,25,40,45,45,102.5,SBD,Raw
