Place,Name,Sex,BirthDate,Age,Country,State,Equipment,Division,BodyweightKg,WeightClassKg,Squat1Kg,Squat2Kg,Squat3Kg,Squat4Kg,Best3SquatKg,Bench1Kg,Bench2Kg,Bench3Kg,Bench4Kg,Best3BenchKg,Deadlift1Kg,Deadlift2Kg,Deadlift3Kg,Deadlift4Kg,Best3DeadliftKg,TotalKg,Event,Team
1,Jennifer May,F,1978-08-30,44,USA,NC,Raw,M1-T,69.9,75,82.5,90,97.5,,97.5,47.5,52.5,55,,55,102.5,112.5,125,,125,277.5,SBD,
1,Gina Casper,F,1977-10-15,45,USA,NC,Raw,M2-T,63.5,67.5,97.5,105,107.5,,107.5,60,67.5,-70,,67.5,127.5,135,137.5,,137.5,312.5,SBD,
1,Gina Casper,F,1977-10-15,45,USA,NC,Raw,O-T,63.5,67.5,97.5,105,107.5,,107.5,60,67.5,-70,,67.5,127.5,135,137.5,,137.5,312.5,SBD,
1,Nina Snipes,F,1961-09-01,61,USA,NC,Raw,M5-T,56.7,60,,,,,,25,30,32.5,,32.5,,,,,,32.5,B,
1,Nina Snipes,F,1961-09-01,61,USA,NC,Raw,O-T,56.7,60,,,,,,25,30,32.5,,32.5,,,,,,32.5,B,
1,Justin Fortner,M,2001-09-06,21,USA,NC,Raw,J-U,86.2,90,190,195,220,232.5,220,130,140,150,,150,202.5,210,-220,,210,580,SBD,
1,Taylor Matthews,M,1988-01-26,35,USA,NC,Raw,MPF-U,116.2,125,265,-282.5,,,265,140,142.5,-150,,142.5,62.5,182.5,230,,230,637.5,SBD,
1,Taylor Matthews,M,1988-01-26,35,USA,NC,Raw,O-U,116.2,125,265,-282.5,,,265,140,142.5,-150,,142.5,62.5,182.5,230,,230,637.5,SBD,
1,Taylor Matthews,M,1988-01-26,35,USA,NC,Raw,S-U,116.2,125,265,-282.5,,,265,140,142.5,-150,,142.5,62.5,182.5,230,,230,637.5,SBD,
1,Caleb Heaton,M,2009-08-12,13,USA,NC,Raw,T1-X,81.7,82.5,85,92.5,102.5,,102.5,80,87.5,90,92.5,90,122.5,132.5,140,147.5,140,332.5,SBD,
1,Milon Lynch,M,1989-01-20,34,USA,NC,Single-ply,O-T,97.8,100,-152.5,152.5,-172.5,,152.5,145,147.5,-175,,147.5,170,197.5,-220,,197.5,497.5,SBD,
1,Greg Popejoy,M,1978-10-12,44,USA,NC,Multi-ply,M1-U,108,110,240,257.5,-272.5,,257.5,242.5,-255,-255,,242.5,240,245,255,-275,255,755,SBD,
1,Tyler Popejoy,M,2004-04-29,19,USA,NC,Multi-ply,O-T,109.95,110,217.5,227.5,240,,240,170,177.5,197.5,,197.5,180,190,200,,200,637.5,SBD,
1,Greg Popejoy,M,1978-10-12,44,USA,NC,Multi-ply,O-U,108,110,240,257.5,-272.5,,257.5,242.5,-255,-255,,242.5,240,245,255,-275,255,755,SBD,
1,Steve Scott,M,1990-02-21,33,USA,NC,Multi-ply,O-U,120,125,327.5,342.5,365,,365,220,-235,,,220,295,-322.5,-322.5,,295,880,SBD,
1,Tyler Popejoy,M,2004-04-29,19,USA,NC,Multi-ply,T3-X,109.95,110,217.5,227.5,240,,240,170,177.5,197.5,,197.5,180,190,200,,200,637.5,SBD,
1,Todd J King,M,1965-11-05,57,USA,NC,Raw,M4-T,109.3,110,,,,,,107.5,112.5,117.5,,117.5,185,190,197.5,220,197.5,315,BD,
1,Todd J King,M,1965-11-05,57,USA,NC,Raw,MPF-T,109.3,110,,,,,,107.5,112.5,117.5,,117.5,185,190,197.5,220,197.5,315,BD,
1,Todd J King,M,1965-11-05,57,USA,NC,Raw,O-T,109.3,110,,,,,,107.5,112.5,117.5,,117.5,185,190,197.5,220,197.5,315,BD,
1,Christopher Godfrey,M,,11,USA,NC,Raw,Y-X,81.2,82.5,,,,,,25,30,32.5,,32.5,52.5,57.5,62.5,67.5,62.5,95,BD,
1,Anthony Tasker,M,2008-06-11,14,USA,NC,Raw,T1-X,100.6,110,87.5,115,-145,,115,,,,,,87.5,102.5,135,140,135,250,SD,
1,Todd J King,M,1965-11-05,57,USA,NC,Raw,M4-T,109.3,110,,,,,,107.5,112.5,117.5,,117.5,,,,,,117.5,B,
1,Todd J King,M,1965-11-05,57,USA,NC,Raw,MPF-T,109.3,110,,,,,,107.5,112.5,117.5,,117.5,,,,,,117.5,B,
1,Todd J King,M,1965-11-05,57,USA,NC,Raw,O-T,109.3,110,,,,,,107.5,112.5,117.5,,117.5,,,,,,117.5,B,
1,Jalen Johnson #3,M,2002-09-04,20,USA,NC,Multi-ply,J-T,101.88,110,,,,,,102.5,127.5,142.5,,142.5,,,,,,142.5,B,
1,Todd J King,M,1965-11-05,57,USA,NC,Raw,M4-T,109.3,110,,,,,,,,,,,185,190,197.5,220,197.5,197.5,D,
1,Todd J King,M,1965-11-05,57,USA,NC,Raw,MPF-T,109.3,110,,,,,,,,,,,185,190,197.5,220,197.5,197.5,D,
1,Todd J King,M,1965-11-05,57,USA,NC,Raw,O-T,109.3,110,,,,,,,,,,,185,190,197.5,220,197.5,197.5,D,
2,Kinleigh Kennedy,F,2017-09-05,5,USA,NC,Raw,KC-X,,44,,,,,,,,,,,17.01,21.55,26.08,,26.08,26.08,D,
3,Zoey Barber,F,2018-01-08,5,USA,NC,Raw,KC-X,31.21,44,,,,,,,,,,,17.01,21.55,26.08,,26.08,26.08,D,New Day Fitness
4,Carleigh Strickland,F,2016-10-23,6,USA,NC,Raw,KC-X,16.96,44,,,,,,,,,,,17.01,19.28,23.81,,23.81,23.81,D,New Day Fitness
1,Alaina Allsbrook,F,2014-02-10,9,USA,NC,Raw,KC-X,19.82,44,,,,,,,,,,,23.81,30.62,35.15,,35.15,35.15,D,New Day Fitness
1,Carson Strickland,M,2016-10-23,6,USA,NC,Raw,KC-X,21.32,52,,,,,,,,,,,23.81,30.62,35.15,,35.15,35.15,D,New Day Fitness
