Division,WeightClassKg,Place,Name,Team,BodyweightKg,Best3SquatKg,Best3BenchKg,Best3DeadliftKg,TotalKg,Equipment,Event,Sex,BirthDate
Boys,51.71,1,Brian Usrey,Bells,50.35,129.27,92.99,131.54,353.8,Unlimited,SBD,M,
Boys,51.71,2,Evan Ewton,Denison,47.99,90.72,56.7,95.25,242.67,Unlimited,SBD,M,
Boys,51.71,3,Carlos Hernandez,Alvord,46.99,77.11,47.63,90.72,215.46,Unlimited,SBD,M,
Boys,51.71,4,Abdullah Ghafoory,Prosper Rock Hill,49.35,61.23,38.56,65.77,165.56,Unlimited,SBD,M,
Boys,55.79,1,Colby Murphey,Ponder,55.07,138.35,88.45,136.08,362.87,Unlimited,SBD,M,
Boys,55.79,2,Austin Caldwell,Collinsville,54.61,108.86,77.11,129.27,315.25,Unlimited,SBD,M,
Boys,55.79,3,Caden Murphy,Ponder,55.79,111.13,61.23,117.93,290.3,Unlimited,SBD,M,
Boys,55.79,4,Jayce Lehde,Sadler S & S Consolidated,55.61,111.13,61.23,104.33,276.69,Unlimited,SBD,M,
Boys,55.79,5,Connor Grady,Leonard,54.88,88.45,56.7,111.13,256.28,Unlimited,SBD,M,
Boys,59.87,1,Leander Lovelace,Alvord,59.15,163.29,95.25,165.56,424.11,Unlimited,SBD,M,
Boys,59.87,2,Rafael Chavez,Gainesville,59.15,154.22,111.13,156.49,421.84,Unlimited,SBD,M,
Boys,59.87,3,Tyson Scott,Krum,59.87,136.08,95.25,154.22,385.55,Unlimited,SBD,M,
Boys,59.87,4,Ryan Dearmond,Tom Bean,56.7,142.88,68.04,165.56,376.48,Unlimited,SBD,M,
Boys,59.87,5,Rylan Ross,Whitewright,57.06,138.35,74.84,142.88,356.07,Unlimited,SBD,M,
Boys,59.87,6,Tyler Slimp,Alvord,58.97,122.47,74.84,145.15,342.46,Unlimited,SBD,M,
Boys,59.87,7,Dylan Childs,Sherman,59.69,136.08,74.84,124.74,335.66,Unlimited,SBD,M,
Boys,59.87,8,Brody Staton,Krum,58.51,102.06,74.84,127.01,303.91,Unlimited,SBD,M,
Boys,59.87,9,Aiden Day,Melissa,56.97,83.91,47.63,106.59,238.14,Unlimited,SBD,M,
Boys,59.87,10,Adrian Calderon,Tioga,57.06,83.91,52.16,83.91,219.99,Unlimited,SBD,M,
Boys,59.87,DQ,Gabriel Page,Paradise,56.97,129.27,,,,Unlimited,SBD,M,
Boys,59.87,DQ,Anthony Rosales,Princeton,58.97,158.76,,,,Unlimited,SBD,M,
Boys,67.13,1,Zander Paton,Melissa,65.68,192.78,124.74,213.19,530.7,Unlimited,SBD,M,
Boys,67.13,2,Michael Lopez,Princeton,66.22,206.38,111.13,188.24,505.76,Unlimited,SBD,M,
Boys,67.13,3,Richie Eminovski,Pottsboro,66.5,170.1,120.2,176.9,467.2,Unlimited,SBD,M,
Boys,67.13,4,Austin Hash,Pottsboro,67.13,158.76,92.99,183.7,435.45,Unlimited,SBD,M,
Boys,67.13,5,Luke Wymer,Leonard,66.41,170.1,104.33,149.69,424.11,Unlimited,SBD,M,
Boys,67.13,6,Daniel Ruiz,Tom Bean,59.96,142.88,79.38,183.7,405.97,Unlimited,SBD,M,
Boys,67.13,7,Josh Dillon,Krum,66.68,136.08,108.86,154.22,399.16,Unlimited,SBD,M,
Boys,67.13,8,Jaxon Brown,Alvord,61.78,149.69,92.99,147.42,390.09,Unlimited,SBD,M,
Boys,67.13,9,Jaxon Stogsdill,Krum,66.22,138.35,90.72,151.95,381.02,Unlimited,SBD,M,
Boys,67.13,10,Christain Escamilla,Sherman,63.5,156.49,79.38,142.88,378.75,Unlimited,SBD,M,
Boys,67.13,11,Michael Hammer,Callisburg,64.95,154.22,81.65,142.88,378.75,Unlimited,SBD,M,
Boys,67.13,12,Rhett Morgan,Pottsboro,64.5,136.08,77.11,149.69,362.87,Unlimited,SBD,M,
Boys,67.13,13,Jayden Vega,Sadler S & S Consolidated,67.13,133.81,90.72,138.35,362.87,Unlimited,SBD,M,
Boys,67.13,14,Tim Grindstaff,Collinsville,65.59,122.47,86.18,142.88,351.53,Unlimited,SBD,M,
Boys,67.13,15,Eli Colunga,Bells,61.51,120.2,70.31,142.88,333.39,Unlimited,SBD,M,
Boys,67.13,16,Izak Tumey,Tom Bean,65.41,106.59,70.31,133.81,310.71,Unlimited,SBD,M,
Boys,67.13,17,Noah Gross,Denison,66.13,108.86,79.38,113.4,301.64,Unlimited,SBD,M,
Boys,67.13,18,Justin Ngywen,Ponder,64.5,108.86,72.57,115.67,297.1,Unlimited,SBD,M,
Boys,67.13,19,Fernando Perez,Collinsville,62.23,92.99,81.65,120.2,294.84,Unlimited,SBD,M,
Boys,67.13,20,Devin Weaver,Bells,63.59,92.99,61.23,138.35,292.57,Unlimited,SBD,M,
Boys,67.13,21,Logan Sallas,Whitewright,63.32,88.45,72.57,108.86,269.89,Unlimited,SBD,M,
Boys,67.13,DQ,Joaquin Ordonez,Whitewright,60.15,136.08,,,,Unlimited,SBD,M,
Boys,67.13,DQ,Alan Jaramillo,Sherman,63.96,197.31,,,,Unlimited,SBD,M,
Boys,67.13,DQ,Aiden Baker,Krum,63.41,,,,,Unlimited,SBD,M,
Boys,74.84,1,Emmanuel Martinez,Princeton,69.58,231.33,170.1,215.46,616.89,Unlimited,SBD,M,
Boys,74.84,2,Kale Jones,Ponder,73.75,213.19,131.54,204.12,548.85,Unlimited,SBD,M,
Boys,74.84,3,Haidyn Jones,Krum,74.48,215.46,129.27,199.58,544.31,Unlimited,SBD,M,
Boys,74.84,4,Remingten Wyatt,Leonard,71.21,185.97,122.47,201.85,510.29,Unlimited,SBD,M,
Boys,74.84,5,Mateo Gonzalez,Krum,74.03,206.38,111.13,174.63,492.15,Unlimited,SBD,M,
Boys,74.84,6,Gentry Morrow,Pottsboro,73.75,183.7,111.13,188.24,483.08,Unlimited,SBD,M,
Boys,74.84,7,Jaxon Brown,Bells,73.94,165.56,115.67,192.78,474,Unlimited,SBD,M,
Boys,74.84,8,Mason Witherspoon,Krum,74.03,183.7,111.13,174.63,469.47,Unlimited,SBD,M,
Boys,74.84,9,Wiley Head,Callisburg,73.57,156.49,133.81,174.63,464.93,Unlimited,SBD,M,
Boys,74.84,10,George Light,Collinsville,74.57,163.29,117.93,183.7,464.93,Unlimited,SBD,M,
Boys,74.84,11,Jacob Walker,Princeton,67.22,158.76,97.52,190.51,446.79,Unlimited,SBD,M,
Boys,74.84,12,Justin Petty,Sadler S & S Consolidated,72.26,167.83,81.65,183.7,433.18,Unlimited,SBD,M,
Boys,74.84,13,Gael Gomez,Sherman,74.39,165.56,97.52,165.56,428.64,Unlimited,SBD,M,
Boys,74.84,14,Jesse Mercado,Bells,72.3,142.88,92.99,163.29,399.16,Unlimited,SBD,M,
Boys,74.84,15,Ryan Thomas,Alvord,73.75,138.35,90.72,136.08,365.14,Unlimited,SBD,M,
Boys,74.84,16,Levi Worthington,Paradise,69.4,136.08,83.91,142.88,362.87,Unlimited,SBD,M,
Boys,74.84,17,Corbin Pond,Blue Ridge,67.86,142.88,90.72,124.74,358.34,Unlimited,SBD,M,
Boys,74.84,18,Zander Norman,Paradise,70.85,127.01,83.91,136.08,347,Unlimited,SBD,M,
Boys,74.84,19,Hunter Bigham,Sadler S & S Consolidated,67.22,131.54,72.57,138.35,342.46,Unlimited,SBD,M,
Boys,74.84,20,Cooper Collins,Whitewright,68.13,131.54,81.65,122.47,335.66,Unlimited,SBD,M,
Boys,74.84,21,Raul Olvera,Gainesville,73.48,124.74,83.91,124.74,333.39,Unlimited,SBD,M,
Boys,74.84,22,Ayden Welsh,Sherman,70.31,90.72,90.72,106.59,288.03,Unlimited,SBD,M,
Boys,74.84,23,Gabino Barco,Dodd City,74.3,86.18,77.11,117.93,281.23,Unlimited,SBD,M,
Boys,74.84,24,Alex Jones,Prosper Rock Hill,72.12,83.91,74.84,104.33,263.08,Unlimited,SBD,M,
Boys,74.84,25,Jesse Steward,Sadler S & S Consolidated,72.39,97.52,63.5,92.99,254.01,Unlimited,SBD,M,
Boys,74.84,DQ,Tucker Sanders,Paradise,68.22,,,,,Unlimited,SBD,M,
Boys,74.84,DQ,Claetyn Moore,Ponder,73.39,210.92,111.13,,,Unlimited,SBD,M,
Boys,74.84,DQ,Randy Slaughter,Leonard,67.54,,,,,Unlimited,SBD,M,
Boys,82.1,1,Will Ngyuen,Princeton,81.19,231.33,170.1,217.72,619.15,Unlimited,SBD,M,
Boys,82.1,2,Jose Monroy,Sherman,80.1,197.31,147.42,195.04,539.77,Unlimited,SBD,M,
Boys,82.1,3,Tanner Williams,Princeton,79.11,208.65,138.35,190.51,537.51,Unlimited,SBD,M,
Boys,82.1,4,Sahil Panda,Melissa,77.93,197.31,120.2,215.46,532.97,Unlimited,SBD,M,
Boys,82.1,5,Cole Riley,Melissa,75.52,201.85,120.2,206.38,528.44,Unlimited,SBD,M,
Boys,82.1,6,Grady Upchurch,Princeton,75.02,208.65,129.27,188.24,526.17,Unlimited,SBD,M,
Boys,82.1,7,Marcus Agustin,Prosper Rock Hill,78.83,190.51,131.54,197.31,519.36,Unlimited,SBD,M,
Boys,82.1,8,Luke Hurning,Denison,80.47,183.7,117.93,192.78,494.42,Unlimited,SBD,M,
Boys,82.1,9,Israel Lopez,Sherman,79.02,188.24,115.67,183.7,487.61,Unlimited,SBD,M,
Boys,82.1,10,Brandon Palmer,Denison,80.2,190.51,113.4,183.7,487.61,Unlimited,SBD,M,
Boys,82.1,11,Chris Torres,Howe,76.57,204.12,102.06,174.63,480.81,Unlimited,SBD,M,
Boys,82.1,12,Jackson Uloth,Alvord,81.65,170.1,127.01,172.37,469.47,Unlimited,SBD,M,
Boys,82.1,13,Bryce Pieper,Howe,74.93,172.37,115.67,170.1,458.13,Unlimited,SBD,M,
Boys,82.1,14,Corbin Hood,Ponder,76.2,161.03,102.06,183.7,446.79,Unlimited,SBD,M,
Boys,82.1,15,Oliver Kinconnon,Denison,77.11,165.56,108.86,167.83,442.25,Unlimited,SBD,M,
Boys,82.1,16,Alex Blasengame,Howe,80.01,158.76,102.06,161.03,421.84,Unlimited,SBD,M,
Boys,82.1,17,Caiden Wolfe,Callisburg,75.11,151.95,106.59,149.69,408.23,Unlimited,SBD,M,
Boys,82.1,18,Noah Rondeau,Sadler S & S Consolidated,82.05,151.95,111.13,145.15,408.23,Unlimited,SBD,M,
Boys,82.1,19,Parker Bryan,Howe,76.57,133.81,104.33,165.56,403.7,Unlimited,SBD,M,
Boys,82.1,20,Kolby Flake,Alvord,78.02,138.35,83.91,149.69,371.95,Unlimited,SBD,M,
Boys,82.1,21,Zane Young,Tom Bean,80.56,124.74,70.31,151.95,347,Unlimited,SBD,M,
Boys,82.1,22,Patrick Hamm,Whitewright,80.47,124.74,74.84,142.88,342.46,Unlimited,SBD,M,
Boys,82.1,23,Antonio Nava,Gainesville,77.02,104.33,72.57,122.47,299.37,Unlimited,SBD,M,
Boys,82.1,DQ,Beau Chenevert,Paradise,77.66,195.04,,,,Unlimited,SBD,M,
Boys,89.81,1,Devon Jeffries,Denison,87.82,274.42,174.63,235.87,684.92,Unlimited,SBD,M,
Boys,89.81,2,Josh Cordell,Bells,87.09,229.06,124.74,219.99,573.79,Unlimited,SBD,M,
Boys,89.81,3,Jaxon Watjen,Princeton,87.63,217.72,120.2,208.65,546.58,Unlimited,SBD,M,
Boys,89.81,4,Jonathon Walters,Princeton,88,226.8,117.93,185.97,530.7,Unlimited,SBD,M,
Boys,89.81,5,Miles Morrison,Melissa,84.1,197.31,124.74,192.78,514.83,Unlimited,SBD,M,
Boys,89.81,6,Breyden Thoms,Paradise,88.72,181.44,136.08,197.31,514.83,Unlimited,SBD,M,
Boys,89.81,7,Isaac Patino,Sherman,87.09,183.7,127.01,197.31,508.02,Unlimited,SBD,M,
Boys,89.81,8,Cody Ngyuen,Ponder,87.82,208.65,115.67,176.9,501.22,Unlimited,SBD,M,
Boys,89.81,9,Mahlon Walker,Howe,88.09,170.1,138.35,183.7,492.15,Unlimited,SBD,M,
Boys,89.81,10,Mike Collins,Sherman,85,170.1,115.67,197.31,483.08,Unlimited,SBD,M,
Boys,89.81,11,Jacob Chase,Alvord,87.63,174.63,127.01,151.95,453.59,Unlimited,SBD,M,
Boys,89.81,12,Teagan Barnett,Callisburg,86.09,167.83,106.59,174.63,449.06,Unlimited,SBD,M,
Boys,89.81,13,Clayton Winters,Callisburg,85.77,156.49,108.86,163.29,428.64,Unlimited,SBD,M,
Boys,89.81,14,Bowen McAdams,Callisburg,87.82,174.63,88.45,163.29,426.38,Unlimited,SBD,M,
Boys,89.81,15,Brian Avitud,Gainesville,83.19,165.56,86.18,167.83,419.57,Unlimited,SBD,M,
Boys,89.81,16,James Grubbs,Whitewright,82.83,158.76,92.99,158.76,410.5,Unlimited,SBD,M,
Boys,89.81,17,Bryson Wyatt,Pottsboro,84.87,165.56,83.91,151.95,401.43,Unlimited,SBD,M,
Boys,89.81,18,Brian White,Howe,85.73,151.95,88.45,142.88,383.29,Unlimited,SBD,M,
Boys,89.81,19,Gabriel Diaz,Sherman,87.18,124.74,65.77,133.81,324.32,Unlimited,SBD,M,
Boys,89.81,DQ,Charles Bawmann,Ponder,86.36,129.27,,,,Unlimited,SBD,M,
Boys,89.81,DQ,Ren Helton,Paradise,88.36,222.26,156.49,,,Unlimited,SBD,M,
Boys,89.81,DQ,Corigan Etter,Callisburg,87.72,204.12,,,,Unlimited,SBD,M,
Boys,89.81,DQ,Aj Daugherty,Leonard,89.09,,,,,Unlimited,SBD,M,
Boys,89.81,DQ,Alejandro Aguilar,Callisburg,82.19,,,,,Unlimited,SBD,M,
Boys,99.79,1,Braylin Garcia,Leonard,98.61,260.82,195.04,222.26,678.12,Unlimited,SBD,M,
Boys,99.79,2,Angel Cruz,Whitewright,90.08,256.28,167.83,238.14,662.24,Unlimited,SBD,M,
Boys,99.79,3,Maliek Harris,Leonard,96.52,233.6,151.95,219.99,605.55,Unlimited,SBD,M,
Boys,99.79,4,Jordan Keller,Pottsboro,93.53,215.46,113.4,226.8,555.65,Unlimited,SBD,M,
Boys,99.79,5,Zane Smith,Alvord,97.61,181.44,127.01,229.06,537.51,Unlimited,SBD,M,
Boys,99.79,6,John Rincon,Gainesville,96.98,199.58,122.47,163.29,485.34,Unlimited,SBD,M,
Boys,99.79,7,Frankie Montez,Krum,92.62,165.56,142.88,172.37,480.81,Unlimited,SBD,M,
Boys,99.79,8,Alan Bustos,Gainesville,91.26,183.7,111.13,174.63,469.47,Unlimited,SBD,M,
Boys,99.79,9,Parker Ringger,Sadler S & S Consolidated,98.25,181.44,111.13,172.37,464.93,Unlimited,SBD,M,
Boys,99.79,10,Dillon Patterson,Howe,94.53,188.24,102.06,172.37,462.66,Unlimited,SBD,M,
Boys,99.79,11,Leonel Terrazas,Sherman,99.7,176.9,106.59,163.29,446.79,Unlimited,SBD,M,
Boys,99.79,12,Easton McKelvain,Alvord,92.71,147.42,90.72,129.27,367.41,Unlimited,SBD,M,
Boys,99.79,DQ,Reese Futch,Whitewright,96.52,219.99,,,,Unlimited,SBD,M,
Boys,99.79,DQ,Caden King,Bells,91.53,231.33,,,,Unlimited,SBD,M,
Boys,99.79,DQ,Rylan McSpedden,Sadler S & S Consolidated,98.52,172.37,102.06,,,Unlimited,SBD,M,
Boys,99.79,DQ,Fabian Ortiz,Paradise,93.53,,,,,Unlimited,SBD,M,
Boys,109.77,1,Josh Turner,Denison,100.61,244.94,158.76,217.72,621.42,Unlimited,SBD,M,
Boys,109.77,2,McKay Young,Tom Bean,108.68,206.38,136.08,226.8,569.26,Unlimited,SBD,M,
Boys,109.77,3,Blaine Turner,Ponder,100.33,224.53,120.2,219.99,564.72,Unlimited,SBD,M,
Boys,109.77,4,Houston Beebe,Leonard,103.96,217.72,140.61,197.31,555.65,Unlimited,SBD,M,
Boys,109.77,5,Pablo Carrillo,Paradise,102.87,217.72,142.88,183.7,544.31,Unlimited,SBD,M,
Boys,109.77,6,Ethan Bard,Krum,102.97,206.38,120.2,217.72,544.31,Unlimited,SBD,M,
Boys,109.77,7,Danny Lopez,Sherman,100.97,219.99,138.35,183.7,542.04,Unlimited,SBD,M,
Boys,109.77,8,Brian Horton,Whitewright,105.05,201.85,122.47,183.7,508.02,Unlimited,SBD,M,
Boys,109.77,9,Cason Cox,Ponder,106.5,192.78,113.4,199.58,505.76,Unlimited,SBD,M,
Boys,109.77,10,Carson Thompson,Leonard,107.23,201.85,127.01,163.29,492.15,Unlimited,SBD,M,
Boys,109.77,11,Braydon Berry,Sherman,106.5,181.44,122.47,174.63,478.54,Unlimited,SBD,M,
Boys,109.77,12,Matthew Gonzalez,Alvord,103.69,181.44,111.13,154.22,446.79,Unlimited,SBD,M,
Boys,109.77,13,Christopher Flores,Whitewright,102.78,172.37,102.06,142.88,417.3,Unlimited,SBD,M,
Boys,109.77,14,Payton Evans,Tom Bean,103.33,124.74,70.31,138.35,333.39,Unlimited,SBD,M,
Boys,109.77,15,Lane Castruida,Gainesville,100.61,92.99,58.97,106.59,258.55,Unlimited,SBD,M,
Boys,109.77,DQ,J Shadburn,Tioga,105.51,,,,,Unlimited,SBD,M,
Boys,109.77,DQ,Ben Pitts,Blue Ridge,108.05,179.17,97.52,,,Unlimited,SBD,M,
Boys,109.77,DQ,Mason Noble,Callisburg,101.6,,,,,Unlimited,SBD,M,
Boys,109.77,DQ,Kaden Sabonis,Prosper Rock Hill,107.5,224.53,,,,Unlimited,SBD,M,
Boys,109.77,DQ,Mohammad Taha,Prosper Rock Hill,100.06,,,,,Unlimited,SBD,M,
Boys,124.74,1,John Worthington,Paradise,117.12,283.5,195.04,226.8,705.34,Unlimited,SBD,M,
Boys,124.74,2,Jake Brown,Melissa,121.29,272.16,176.9,242.67,691.73,Unlimited,SBD,M,
Boys,124.74,3,Jason Boyd,Bells,111.77,272.16,151.95,224.53,648.64,Unlimited,SBD,M,
Boys,124.74,4,Caleb Cox,Denison,113.04,226.8,147.42,226.8,601.01,Unlimited,SBD,M,
Boys,124.74,5,Jd Rivera,Krum,112.13,233.6,145.15,183.7,562.45,Unlimited,SBD,M,
Boys,124.74,6,Diego Hernandez,Gainesville,114.4,226.8,172.37,163.29,562.45,Unlimited,SBD,M,
Boys,124.74,7,Caleb Akins,Denison,117.21,208.65,161.03,192.78,562.45,Unlimited,SBD,M,
Boys,124.74,8,Michael Wiemer,Howe,112.49,199.58,147.42,183.7,530.7,Unlimited,SBD,M,
Boys,124.74,9,Shane Brown,Ponder,123.2,197.31,113.4,215.46,526.17,Unlimited,SBD,M,
Boys,124.74,10,Jharoski Bingham,Princeton,122.65,213.19,120.2,188.24,521.63,Unlimited,SBD,M,
Boys,124.74,11,Dominic Ojeda,Princeton,112.76,183.7,120.2,210.92,514.83,Unlimited,SBD,M,
Boys,124.74,12,Tyson Monk,Tioga,122.2,208.65,131.54,156.49,496.68,Unlimited,SBD,M,
Boys,124.74,13,Nathen Garlow,Princeton,113.13,181.44,97.52,174.63,453.59,Unlimited,SBD,M,
Boys,124.74,14,Martin Amador,Callisburg,111.67,201.85,90.72,158.76,451.32,Unlimited,SBD,M,
Boys,124.74,15,Hayden Brem,Sherman,116.12,165.56,124.74,161.03,451.32,Unlimited,SBD,M,
Boys,124.74,16,Aaron Shores,Callisburg,117.39,149.69,90.72,165.56,405.97,Unlimited,SBD,M,
Boys,124.74,17,Taylor Phillips,Dodd City,117.39,145.15,95.25,154.22,394.63,Unlimited,SBD,M,
Boys,124.74,18,Kevin Abavca,Sherman,124.38,142.88,70.31,158.76,371.95,Unlimited,SBD,M,
Boys,124.74,19,Ian Fox,Alvord,119.48,145.15,81.65,142.88,369.68,Unlimited,SBD,M,
Boys,124.74,20,Landon Robinson,Sherman,116.66,102.06,102.06,154.22,358.34,Unlimited,SBD,M,
Boys,139.71,1,Gustavo Perez,Callisburg,136.08,285.76,188.24,226.8,700.8,Unlimited,SBD,M,
Boys,139.71,2,Diesel Wanamaker,Callisburg,135.35,254.01,120.2,231.33,605.55,Unlimited,SBD,M,
Boys,139.71,3,Jason Reyes,Gainesville,134.26,226.8,158.76,185.97,571.53,Unlimited,SBD,M,
Boys,139.71,4,Gavin Stone,Leonard,136.53,167.83,88.45,154.22,410.5,Unlimited,SBD,M,
Boys,139.71,5,Caynen Ingram,Dodd City,129.27,131.54,74.84,131.54,337.93,Unlimited,SBD,M,
Boys,139.71,DQ,Luke Duncan,Princeton,136.62,163.29,122.47,,,Unlimited,SBD,M,
Boys,139.71+,1,Carson Culp,Pottsboro,168.92,267.62,158.76,192.78,619.15,Unlimited,SBD,M,
Boys,139.71+,2,Nathan Woods,Denison,140.25,229.06,158.76,215.46,603.28,Unlimited,SBD,M,
Boys,139.71+,3,Noah Roten,Denison,140.25,219.99,167.83,192.78,580.6,Unlimited,SBD,M,
Boys,139.71+,4,Braxton Armstrong,Leonard,163.75,213.19,158.76,185.97,557.92,Unlimited,SBD,M,
Boys,139.71+,5,Justin West,Sherman,140.52,183.7,70.31,174.63,428.64,Unlimited,SBD,M,
Boys,139.71+,6,Byron Coldicott,Pottsboro,144.61,136.08,102.06,142.88,381.02,Unlimited,SBD,M,
