Division,WeightClassKg,Place,Name,Team,BodyweightKg,Best3SquatKg,Best3BenchKg,Best3DeadliftKg,TotalKg,Equipment,Event,Sex,BirthDate
Boys,55.79,1,Brenden Burrows,Rusk,55.34,115.67,70.31,136.08,322.05,Unlimited,SBD,M,
Boys,55.79,2,Ian Eversbeard,Rusk,54.88,83.91,63.5,113.4,260.82,Unlimited,SBD,M,
Boys,59.87,1,Jace Harrod,Palestine,58.97,183.7,106.59,181.44,471.74,Unlimited,SBD,M,
Boys,59.87,2,Christian Espinoza,Jacksonville,58.29,170.1,111.13,183.7,464.93,Unlimited,SBD,M,
Boys,67.13,1,Aidan Gonzalez,Jacksonville,67.04,158.76,120.2,165.56,444.52,Unlimited,SBD,M,
Boys,74.84,1,Zach Reagan,Palestine,74.39,190.51,111.13,210.92,512.56,Unlimited,SBD,M,
Boys,74.84,2,Adriano Vasquez,Palestine,73.48,185.97,111.13,192.78,489.88,Unlimited,SBD,M,
Boys,74.84,3,Joseph Aceituno,Palestine,74.84,158.76,106.59,163.29,428.64,Unlimited,SBD,M,
Boys,82.1,1,Jhony Martinez,Palestine,81.65,204.12,154.22,215.46,573.79,Unlimited,SBD,M,
Boys,82.1,2,Walker Dublin,Jacksonville,82.1,183.7,136.08,195.04,514.83,Unlimited,SBD,M,
Boys,82.1,3,Hudson Bayless,Rusk,80.29,136.08,81.65,156.49,374.21,Unlimited,SBD,M,
Boys,82.1,4,Josiah Givens,Rusk,81.19,142.88,68.04,142.88,353.8,Unlimited,SBD,M,
Boys,99.79,1,Kevin Zamora,Palestine,90.72,204.12,111.13,195.04,510.29,Unlimited,SBD,M,
Boys,99.79,2,Caelan Soultanov,Jacksonville,93.89,174.63,117.93,213.19,505.76,Unlimited,SBD,M,
Boys,99.79,3,Ronnie Williams,Palestine,99.79,195.04,102.06,190.51,487.61,Unlimited,SBD,M,
Boys,109.77,1,Alex Ramirez,Jacksonville,107.05,190.51,124.74,208.65,523.9,Unlimited,SBD,M,
Boys,109.77,2,Zaccius Francis,Rusk,106.59,136.08,102.06,136.08,374.21,Unlimited,SBD,M,
Boys,109.77,3,Nathan Phillips,Rusk,104.33,106.59,70.31,129.27,306.17,Unlimited,SBD,M,
Boys,124.74,1,Raphael Foy,Jacksonville,117.93,249.48,145.15,258.55,653.17,Unlimited,SBD,M,
Boys,124.74,2,Calvin Boyd,Jacksonville,120.66,238.14,142.88,226.8,607.81,Unlimited,SBD,M,
Boys,124.74,3,Jonathon Foster,Rusk,117.93,131.54,108.86,133.81,374.21,Unlimited,SBD,M,
Boys,124.74,4,Trenton Grey,Rusk,112.49,129.27,95.25,142.88,367.41,Unlimited,SBD,M,
Boys,139.71,1,Jiovann Rangel,Jacksonville,129.73,197.31,120.2,204.12,521.63,Unlimited,SBD,M,
Boys,139.71+,1,Julian Garcia,Palestine,140.61,226.8,147.42,215.46,589.67,Unlimited,SBD,M,
