Division,WeightClassKg,Place,Name,Team,BodyweightKg,Best3SquatKg,Best3BenchKg,Best3DeadliftKg,TotalKg,Equipment,Event,Sex,BirthDate
Girls,44.23,1,Julia Hernandez,Cumby,43.09,90.72,61.23,108.86,260.82,Unlimited,SBD,F,
Girls,44.23,2,Maddison Scott,Simms Bowie,41.91,68.04,49.9,74.84,192.78,Unlimited,SBD,F,
Girls,44.23,3,Kirstin Fish,Alba-Golden,43.23,70.31,31.75,72.57,174.63,Unlimited,SBD,F,
Girls,44.23,4,Karley Ross,Normangee,36.06,58.97,29.48,58.97,147.42,Unlimited,SBD,F,
Girls,44.23,5,Olivia Ross,Normangee,43,45.36,27.22,63.5,136.08,Unlimited,SBD,F,
Girls,44.23,6,Kaleigh Holcomb,Pineland West Sabine,42.91,54.43,22.68,38.56,115.67,Unlimited,SBD,F,
Girls,44.23,DQ,Alicia Love,Clarksville,44.23,,,,,Unlimited,SBD,F,
Girls,44.23,DQ,Sydnee Pack,Hawkins,39.73,,,,,Unlimited,SBD,F,
Girls,47.85,1,Alleyah Franco,Simms Bowie,47.36,120.2,63.5,129.27,312.98,Unlimited,SBD,F,
Girls,47.85,2,Carley Wren,Celeste,47.63,88.45,56.7,86.18,231.33,Unlimited,SBD,F,
Girls,47.85,3,Siann Levoy,Overton,47.72,77.11,49.9,102.06,229.06,Unlimited,SBD,F,
Girls,47.85,4,Alice Cram,Celeste,46.08,81.65,45.36,86.18,213.19,Unlimited,SBD,F,
Girls,47.85,5,Mykah Tucker,Detroit,47.85,70.31,34.02,77.11,181.44,Unlimited,SBD,F,
Girls,47.85,6,MaKinah Washington,Linden-Kildare,45.09,63.5,34.02,74.84,172.37,Unlimited,SBD,F,
Girls,47.85,DQ,Zion James,Joaquin,47.72,,,,,Unlimited,SBD,F,
Girls,47.85,DQ,Jyterrica Ashworth,San Augustine,47.45,,,,,Unlimited,SBD,F,
Girls,47.85,DQ,Rayleigh Johnson,Simms Bowie,47.76,,,,,Unlimited,SBD,F,
Girls,47.85,DQ,Braelyn Massie,Alba-Golden,45.59,,,,,Unlimited,SBD,F,
Girls,47.85,DQ,Michelle Miles,Gilmer Union Hill,47.85,,,,,Unlimited,SBD,F,
Girls,47.85,DQ,Alayna Stafford,Harleton,45.45,90.72,,,,Unlimited,SBD,F,
Girls,51.94,1,Mayson Smith,Harleton,48.94,117.93,86.18,131.54,335.66,Unlimited,SBD,F,
Girls,51.94,2,Kayla Ready,Harleton,51.07,127.01,72.57,122.47,322.05,Unlimited,SBD,F,
Girls,51.94,3,Alexis Huffman,Garrison,50.08,113.4,70.31,122.47,306.17,Unlimited,SBD,F,
Girls,51.94,4,Lainey Childress,Harleton,50.98,108.86,65.77,111.13,285.76,Unlimited,SBD,F,
Girls,51.94,5,Hannah Vazquez,Malakoff Cross Roads,51.44,113.4,47.63,104.33,265.35,Unlimited,SBD,F,
Girls,51.94,6,Kenzy Bragg,Pineland West Sabine,50.85,83.91,38.56,117.93,240.4,Unlimited,SBD,F,
Girls,51.94,7,Addie Rivenbark,Centerville,48.63,86.18,47.63,95.25,229.06,Unlimited,SBD,F,
Girls,51.94,8,Kylie Bailey,Fruitvale,49.62,92.99,43.09,90.72,226.8,Unlimited,SBD,F,
Girls,51.94,9,Rebecca McDaniel,Beckville,50.8,79.38,54.43,90.72,224.53,Unlimited,SBD,F,
Girls,51.94,DQ,Amariah Frank,Wortham,50.53,,,,,Unlimited,SBD,F,
Girls,56.02,1,Jenna Gould,Frankston,55.38,124.74,72.57,122.47,319.78,Unlimited,SBD,F,
Girls,56.02,2,Catherine Youngblood,Gilmer Union Hill,52.84,124.74,63.5,120.2,308.44,Unlimited,SBD,F,
Girls,56.02,3,Kylin May,Kerens,53.25,129.27,61.23,117.93,308.44,Unlimited,SBD,F,
Girls,56.02,4,Camila Marquez Torres,Fruitvale,55.2,113.4,58.97,127.01,299.37,Unlimited,SBD,F,
Girls,56.02,5,Teri Self,Gilmer Union Hill,55.38,106.59,54.43,111.13,272.16,Unlimited,SBD,F,
Girls,56.02,6,Riley Almand,Celeste,55.97,95.25,68.04,102.06,265.35,Unlimited,SBD,F,
Girls,56.02,7,Mason Fenter,Overton,54.07,102.06,61.23,97.52,260.82,Unlimited,SBD,F,
Girls,56.02,8,Regina Orduna,Celeste,54.02,95.25,56.7,104.33,256.28,Unlimited,SBD,F,
Girls,56.02,9,Paige Schwab,Centerville,52.07,102.06,56.7,95.25,254.01,Unlimited,SBD,F,
Girls,56.02,10,Kambryn Rodrigues,Garrison,53.21,99.79,52.16,97.52,249.48,Unlimited,SBD,F,
Girls,56.02,11,Elizabeth Rodgers,Hawkins,53.52,95.25,65.77,83.91,244.94,Unlimited,SBD,F,
Girls,56.02,DQ,Jackeline Avalos,Laird Hill Leveretts Chapel,54.75,,,,,Unlimited,SBD,F,
Girls,60.1,1,Stephanie Mills,Kerens,58.6,142.88,68.04,127.01,337.93,Unlimited,SBD,F,
Girls,60.1,2,Adele Hawkins,Laird Hill Leveretts Chapel,59.92,120.2,61.23,136.08,317.51,Unlimited,SBD,F,
Girls,60.1,3,Jamarria Wright,Shelbyville,59.06,120.2,56.7,138.35,315.25,Unlimited,SBD,F,
Girls,60.1,4,Sarah Traxler,Garrison,59.19,113.4,68.04,113.4,294.84,Unlimited,SBD,F,
Girls,60.1,5,Jahdai Sanchez,Celeste,57.61,97.52,77.11,117.93,292.57,Unlimited,SBD,F,
Girls,60.1,6,Kameron Denman,Centerville,59.51,129.27,56.7,104.33,290.3,Unlimited,SBD,F,
Girls,60.1,7,Kayla Hayes,Fruitvale,58.42,111.13,56.7,113.4,281.23,Unlimited,SBD,F,
Girls,60.1,8,Taylor Airington,Harleton,56.93,99.79,63.5,106.59,269.89,Unlimited,SBD,F,
Girls,60.1,9,Katy Leonard,Ore City,59.42,90.72,58.97,104.33,254.01,Unlimited,SBD,F,
Girls,60.1,DQ,Lesli Sanchez,Fruitvale,57.33,,,,,Unlimited,SBD,F,
Girls,60.1,DQ,Lexi Easterling,Groveton,56.2,,,,,Unlimited,SBD,F,
Girls,60.1,DQ,La'Tarri Williams,Italy,59.78,,,,,Unlimited,SBD,F,
Girls,60.1,DQ,Ella Partin,Cayuga,59.33,,,,,Unlimited,SBD,F,
Girls,60.1,DQ,Bryanna Hutcherson,Normangee,58.06,,,,,Unlimited,SBD,F,
Girls,67.36,1,Jayden Rodrigues,Garrison,67.09,163.29,95.25,136.08,394.63,Unlimited,SBD,F,
Girls,67.36,2,Addie Holt,Simms Bowie,65.18,154.22,74.84,145.15,374.21,Unlimited,SBD,F,
Girls,67.36,3,Mckenzie Guiette,Wolfe City,67.36,129.27,90.72,122.47,342.46,Unlimited,SBD,F,
Girls,67.36,4,Ashlynn Swallow,Fruitvale,65.41,124.74,70.31,133.81,328.85,Unlimited,SBD,F,
Girls,67.36,5,Chloe Groves,Cumby,61.42,120.2,68.04,136.08,324.32,Unlimited,SBD,F,
Girls,67.36,6,McKayela Lyday,Celeste,66.68,131.54,79.38,113.4,324.32,Unlimited,SBD,F,
Girls,67.36,7,Caitlyn Deupree,Frankston,65.86,120.2,65.77,120.2,306.17,Unlimited,SBD,F,
Girls,67.36,8,Lainey Moses,Simms Bowie,67.36,127.01,63.5,113.4,303.91,Unlimited,SBD,F,
Girls,67.36,9,Jasmine Chavez,Laird Hill Leveretts Chapel,67,108.86,56.7,127.01,292.57,Unlimited,SBD,F,
Girls,67.36,10,Ar'Mani Jones,Ore City,61.73,111.13,54.43,124.74,290.3,Unlimited,SBD,F,
Girls,67.36,DQ,Emma Barton,Joaquin,66.45,,,,,Unlimited,SBD,F,
Girls,67.36,DQ,Laylyah Godfrey,Normangee,65.73,,,,,Unlimited,SBD,F,
Girls,75.07,1,Ciara Allbritton,Garrison,69.85,188.24,88.45,165.56,442.25,Unlimited,SBD,F,
Girls,75.07,2,Lilly Campbell,Cumby,72.26,167.83,72.57,161.03,401.43,Unlimited,SBD,F,
Girls,75.07,3,Mackynzie Cranford,Garrison,70.13,156.49,90.72,136.08,383.29,Unlimited,SBD,F,
Girls,75.07,4,Isaira Avalos,Laird Hill Leveretts Chapel,73.94,129.27,79.38,145.15,353.8,Unlimited,SBD,F,
Girls,75.07,5,Mia Ebrus,Jewett Leon,73.71,124.74,83.91,133.81,342.46,Unlimited,SBD,F,
Girls,75.07,6,Hazel Martinez,Grapeland,70.85,129.27,54.43,124.74,308.44,Unlimited,SBD,F,
Girls,75.07,7,Addison Daley,Simms Bowie,69.81,124.74,54.43,115.67,294.84,Unlimited,SBD,F,
Girls,75.07,8,Emily Marks,Wolfe City,70.49,127.01,52.16,113.4,292.57,Unlimited,SBD,F,
Girls,75.07,9,Kaylee Dodson,Wolfe City,70.94,108.86,63.5,95.25,267.62,Unlimited,SBD,F,
Girls,75.07,10,Holley Danner,Centerville,71.8,92.99,61.23,108.86,263.08,Unlimited,SBD,F,
Girls,75.07,DQ,Anna Perkins,Overton,73.39,140.61,86.18,,,Unlimited,SBD,F,
Girls,75.07,DQ,Gabby Cooke,Alba-Golden,73.48,,,,,Unlimited,SBD,F,
Girls,82.33,1,Aleah Lyons,Harleton,81.83,158.76,95.25,131.54,385.55,Unlimited,SBD,F,
Girls,82.33,2,Jayden Pierson,Laird Hill Leveretts Chapel,80.47,136.08,81.65,163.29,381.02,Unlimited,SBD,F,
Girls,82.33,3,Kasha Williams,Overton,82.24,136.08,86.18,149.69,371.95,Unlimited,SBD,F,
Girls,82.33,4,Allie Watson,Linden-Kildare,80.97,138.35,88.45,142.88,369.68,Unlimited,SBD,F,
Girls,82.33,5,Ava Nivison,Alba-Golden,80.83,142.88,86.18,124.74,353.8,Unlimited,SBD,F,
Girls,82.33,6,Amori Jones,Beckville,77.88,120.2,72.57,138.35,331.12,Unlimited,SBD,F,
Girls,82.33,7,Ronnye Tull,Fruitvale,82.28,129.27,74.84,117.93,322.05,Unlimited,SBD,F,
Girls,82.33,8,London Segovia,Clarksville,82.19,129.27,58.97,129.27,317.51,Unlimited,SBD,F,
Girls,82.33,9,Palynn Butler,Laird Hill Leveretts Chapel,82.33,124.74,63.5,129.27,317.51,Unlimited,SBD,F,
Girls,82.33,10,Savanna Clark,Gladewater Union Grove,81.33,120.2,58.97,115.67,294.84,Unlimited,SBD,F,
Girls,82.33,DQ,Kennedy Compton,Celeste,77.43,138.35,86.18,,,Unlimited,SBD,F,
Girls,82.33,DQ,Raeleigh York,Simms Bowie,75.48,102.06,,,,Unlimited,SBD,F,
Girls,90.04,1,Kadence Pettit,Cumby,89.27,174.63,102.06,170.1,446.79,Unlimited,SBD,F,
Girls,90.04,2,Amelia Gamez,Harleton,89.31,188.24,102.06,149.69,439.98,Unlimited,SBD,F,
Girls,90.04,3,Lindsey McCullough,Simms Bowie,89.09,190.51,77.11,149.69,417.3,Unlimited,SBD,F,
Girls,90.04,4,Riley Mullins,Joaquin,86.45,140.61,77.11,147.42,365.14,Unlimited,SBD,F,
Girls,90.04,5,Carissa Crain,Ore City,89.18,138.35,74.84,145.15,358.34,Unlimited,SBD,F,
Girls,90.04,6,Allyson Mathews,Hawkins,84.37,145.15,86.18,113.4,344.73,Unlimited,SBD,F,
Girls,90.04,7,Ziunna Wade,San Augustine,83.82,120.2,72.57,140.61,333.39,Unlimited,SBD,F,
Girls,90.04,8,Monica Yarbrough,Ore City,87.14,136.08,58.97,136.08,331.12,Unlimited,SBD,F,
Girls,90.04,9,Summer Cooper,Groveton,86.23,129.27,72.57,115.67,317.51,Unlimited,SBD,F,
Girls,90.04,10,Daytona Vaughn,Gladewater Union Grove,84.55,115.67,79.38,120.2,315.25,Unlimited,SBD,F,
Girls,90.04,11,McKenna Hershbach,Gilmer Union Hill,89.95,104.33,54.43,115.67,274.42,Unlimited,SBD,F,
Girls,90.04,DQ,Ashlyn Lee,Linden-Kildare,87.95,113.4,61.23,,,Unlimited,SBD,F,
Girls,100.02,1,Lexi Luby,Harleton,98.84,192.78,127.01,158.76,478.54,Unlimited,SBD,F,
Girls,100.02,2,Roxy Bustillo,Dawson,92.76,165.56,81.65,158.76,405.97,Unlimited,SBD,F,
Girls,100.02,3,Cadi Belford,Linden-Kildare,90.72,147.42,79.38,149.69,376.48,Unlimited,SBD,F,
Girls,100.02,4,Yo'Miya Hopkins,Gilmer Union Hill,94.8,129.27,68.04,154.22,351.53,Unlimited,SBD,F,
Girls,100.02,5,Mayci Boland,Gladewater Union Grove,98.2,136.08,79.38,136.08,351.53,Unlimited,SBD,F,
Girls,100.02,6,Emmie Metzer,Normangee,97.48,151.95,79.38,104.33,335.66,Unlimited,SBD,F,
Girls,100.02,7,Lexie Lambert,Cumby,97.93,115.67,74.84,138.35,328.85,Unlimited,SBD,F,
Girls,100.02,DQ,Sydney Welch,Harleton,98.52,,,,,Unlimited,SBD,F,
Girls,100.02,DQ,Cloe Rosonke,Hawkins,94.21,129.27,72.57,,,Unlimited,SBD,F,
Girls,100.02,DQ,Serenity Foster,Frankston,98.07,,,,,Unlimited,SBD,F,
Girls,110,1,Halle Bonner,Joaquin,100.11,176.9,90.72,170.1,437.72,Unlimited,SBD,F,
Girls,110,2,Mercedes Wilson,Groveton,100.06,174.63,95.25,154.22,424.11,Unlimited,SBD,F,
Girls,110,3,Brooklyn Henderson,Maud,108.64,176.9,92.99,154.22,424.11,Unlimited,SBD,F,
Girls,110,4,Galilea Abrego,Ore City,105.23,156.49,88.45,167.83,412.77,Unlimited,SBD,F,
Girls,110,5,Lillie McAdams,Overton,103.33,129.27,79.38,147.42,356.07,Unlimited,SBD,F,
Girls,110,6,Asharie Perry,Clarksville,102.51,140.61,70.31,136.08,347,Unlimited,SBD,F,
Girls,110,7,Taylor Walters,Wolfe City,107.68,142.88,68.04,133.81,344.73,Unlimited,SBD,F,
Girls,110,8,Olivia Newsom,Jewett Leon,103.19,122.47,77.11,129.27,328.85,Unlimited,SBD,F,
Girls,110,9,Zoey Spencer,Chireno,104.83,124.74,79.38,117.93,322.05,Unlimited,SBD,F,
Girls,110,DQ,Lexi Stanbery,Wolfe City,103.19,183.7,,,,Unlimited,SBD,F,
Girls,110+,1,Carrie Bixler,Hawkins,131.72,190.51,117.93,154.22,462.66,Unlimited,SBD,F,
Girls,110+,2,Isabell Lane,Grapeland,112.4,151.95,74.84,165.56,392.36,Unlimited,SBD,F,
Girls,110+,3,Leilah Pilgrim,Groveton,135.35,158.76,88.45,131.54,378.75,Unlimited,SBD,F,
Girls,110+,4,Makayla Wallace,Milford,119.88,145.15,58.97,145.15,349.27,Unlimited,SBD,F,
Girls,110+,5,Makayla Ard,Hawkins,110.04,138.35,68.04,140.61,347,Unlimited,SBD,F,
Girls,110+,6,Devonna Wood,Linden-Kildare,112.54,127.01,77.11,138.35,342.46,Unlimited,SBD,F,
Girls,110+,7,Charington Taylor,Linden-Kildare,111.49,127.01,72.57,140.61,340.19,Unlimited,SBD,F,
Girls,110+,8,Tytianna White,Clarksville,126.14,124.74,58.97,136.08,319.78,Unlimited,SBD,F,
Girls,110+,9,Clair Champagne,Pineland West Sabine,143.88,127.01,40.82,136.08,303.91,Unlimited,SBD,F,
Girls,110+,DQ,Akeelah Evans,Normangee,119.48,,,,,Unlimited,SBD,F,
Girls,,NS,Gracey Struwe,Beckville,,,,,,Unlimited,SBD,F,
Girls,,NS,Lily De Los Santos,Big Sandy,,,,,,Unlimited,SBD,F,
Girls,,NS,Gaby Vizcaya,Cumby,,,,,,Unlimited,SBD,F,
Girls,,NS,MeRyah Roland,San Augustine,,,,,,Unlimited,SBD,F,
Girls,,NS,Rylan Bizzell,Garrison,,,,,,Unlimited,SBD,F,
Girls,,NS,Trinity Russell,Fruitvale,,,,,,Unlimited,SBD,F,
Girls,,NS,Jazmine Martinez,Shelbyville,,,,,,Unlimited,SBD,F,
Girls,,NS,Ionnia Hubbard,Shelbyville,,,,,,Unlimited,SBD,F,
Girls,,NS,Fatima Luna,Frost,,,,,,Unlimited,SBD,F,
Girls,,NS,Aryonna Hatton,Frankston,,,,,,Unlimited,SBD,F,
Girls,,NS,Alexis Sudduth,Malakoff Cross Roads,,,,,,Unlimited,SBD,F,
Girls,,NS,Amaria Fills,Centerville,,,,,,Unlimited,SBD,F,
Girls,,NS,Chloe Moore,Detroit,,,,,,Unlimited,SBD,F,
