Division,WeightClassKg,Place,Name,Team,BodyweightKg,Best3SquatKg,Best3BenchKg,Best3DeadliftKg,TotalKg,Equipment,Event,Sex
Boys,51.71,1,Cody Davila,Rockport-Fulton,51.71,131.54,81.65,129.27,342.46,Single-ply,SBD,M
Boys,51.71,2,Jose Huerta,Bishop,47.76,92.99,65.77,117.93,276.69,Single-ply,SBD,M
Boys,51.71,3,Deion Vega,Agua Dulce,43.73,88.45,45.36,99.79,233.6,Single-ply,SBD,M
Boys,55.79,1,Bryan Gutierrez,Bishop,53.61,133.81,83.91,145.15,362.87,Single-ply,SBD,M
Boys,55.79,2,Leroy Burke,Rockport-Fulton,53.89,88.45,61.23,115.67,265.35,Single-ply,SBD,M
Boys,59.87,1,Damian Diaz,Hebbronville,59.33,181.44,83.91,172.37,437.72,Single-ply,SBD,M
Boys,59.87,2,Seth Bazan,Bishop,59.87,149.69,81.65,158.76,390.09,Single-ply,SBD,M
Boys,59.87,3,Gabriel García #11,Bishop,59.15,151.95,74.84,149.69,376.48,Single-ply,SBD,M
Boys,67.13,1,Angel Trujillo,Rockport-Fulton,65.77,183.7,111.13,192.78,487.61,Single-ply,SBD,M
Boys,67.13,2,John Chupe,Rockport-Fulton,63.68,145.15,90.72,170.1,405.97,Single-ply,SBD,M
Boys,67.13,3,Jacob Sandoval,Bishop,67.13,149.69,90.72,154.22,394.63,Single-ply,SBD,M
Boys,67.13,4,Jose Leyva,Bishop,66.68,142.88,83.91,161.03,387.82,Single-ply,SBD,M
Boys,67.13,5,Leo Guerrero,Hebbronville,64.86,138.35,88.45,140.61,367.41,Single-ply,SBD,M
Boys,67.13,6,Rollie Ramos,Hebbronville,62.69,133.81,79.38,142.88,356.07,Single-ply,SBD,M
Boys,67.13,DQ,Alex Ramirez,Hebbronville,66.95,,,,,Single-ply,SBD,M
Boys,74.84,1,Cole Walker,Rockport-Fulton,74.3,195.04,99.79,195.04,489.88,Single-ply,SBD,M
Boys,74.84,2,Dylan Perez,Agua Dulce,74.03,102.06,65.77,142.88,310.71,Single-ply,SBD,M
Boys,82.1,1,Oscar Salazar,Hebbronville,82.1,235.87,183.7,226.8,646.37,Single-ply,SBD,M
Boys,82.1,2,Connor Bowers,Bishop,81.74,226.8,154.22,229.06,610.08,Single-ply,SBD,M
Boys,82.1,3,Joaquin Leija,Agua Dulce,76.93,176.9,115.67,219.99,512.56,Single-ply,SBD,M
Boys,82.1,4,Isaiah Chavera,Hebbronville,78.83,158.76,106.59,219.99,485.34,Single-ply,SBD,M
Boys,82.1,DQ,Zeke Guerrero,Bishop,79.83,,,,,Single-ply,SBD,M
Boys,89.81,1,Zach Pulido,Rockport-Fulton,85.55,238.14,142.88,229.06,610.08,Single-ply,SBD,M
Boys,89.81,2,Damien Campos,Bishop,88.54,226.8,136.08,226.8,589.67,Single-ply,SBD,M
Boys,89.81,3,Caleb Marshall,Hebbronville,84.37,183.7,138.35,199.58,521.63,Single-ply,SBD,M
Boys,89.81,4,Dale Baez,Hebbronville,83.82,204.12,120.2,185.97,510.29,Single-ply,SBD,M
Boys,89.81,5,Paul Baez,Hebbronville,83.91,179.17,102.06,158.76,439.98,Single-ply,SBD,M
Boys,89.81,6,Auston Howard,Agua Dulce,89.45,156.49,90.72,147.42,394.63,Single-ply,SBD,M
Boys,99.79,1,Cameron Ngo,Rockport-Fulton,98.7,233.6,136.08,208.65,578.33,Single-ply,SBD,M
Boys,99.79,2,Jordan Longoria,Bishop,92.76,226.8,124.74,204.12,555.65,Single-ply,SBD,M
Boys,99.79,3,Franklin Ramirez,Rockport-Fulton,99.79,226.8,133.81,192.78,553.38,Single-ply,SBD,M
Boys,99.79,4,Chance Pena,Rockport-Fulton,93.53,215.46,120.2,215.46,551.11,Single-ply,SBD,M
Boys,99.79,5,Alejandro Gómez,Hebbronville,92.62,167.83,115.67,161.03,444.52,Single-ply,SBD,M
Boys,99.79,6,Josiah Gonzalez,Hebbronville,98.34,165.56,70.31,149.69,385.55,Single-ply,SBD,M
Boys,109.77,1,Darriel Gonzalez,Hebbronville,107.86,249.48,131.54,181.44,562.45,Single-ply,SBD,M
Boys,124.74,1,Brandon Kilough,Rockport-Fulton,118.39,215.46,142.88,233.6,591.94,Single-ply,SBD,M
Boys,124.74,2,Pete Dominguez,Hebbronville,117.93,183.7,117.93,204.12,505.76,Single-ply,SBD,M
Boys,124.74+,DQ,Ademar Garcia,Hebbronville,135.62,,,,,Single-ply,SBD,M
