Place,Name,BirthDate,Sex,BirthYear,Age,Country,State,Equipment,Division,BodyweightKg,WeightClassKg,Squat1Kg,Squat2Kg,Squat3Kg,Best3SquatKg,Bench1Kg,Bench2Kg,Bench3Kg,Best3BenchKg,Deadlift1Kg,Deadlift2Kg,Deadlift3Kg,Best3DeadliftKg,TotalKg,Event
1,Taylor Lemminger,,F,2007,16,USA,WI,Single-ply,F-Sj,44.35,47,70.0,77.5,82.5,82.5,30.0,35.0,37.5,37.5,85.0,92.5,97.5,97.5,217.5,SBD
2,Kali Diedrich,,F,2008,15,USA,WI,Single-ply,F-Sj,46.20,47,65.0,75.0,-80.0,75.0,32.5,37.5,40.0,40.0,75.0,80.0,-87.5,80.0,195.0,SBD
1,Isabelle Gazdecki,,F,2007,16,USA,WI,Single-ply,F-Sj,48.10,52,100.0,107.5,-115.0,107.5,47.5,52.5,55.0,55.0,107.5,117.5,122.5,122.5,285.0,SBD
2,Madelyn Keller,,F,2007,16,USA,WI,Single-ply,F-Sj,51.70,52,87.5,95.0,102.5,102.5,50.0,-55.0,55.0,55.0,95.0,102.5,107.5,107.5,265.0,SBD
3,Janica Walker,,F,2007,16,USA,WI,Single-ply,F-Sj,51.85,52,-90.0,90.0,-97.5,90.0,42.5,47.5,50.0,50.0,87.5,95.0,100.0,100.0,240.0,SBD
4,Haley Jurgens,,F,2007,16,USA,WI,Single-ply,F-Sj,49.75,52,-85.0,85.0,97.5,97.5,30.0,32.5,35.0,35.0,77.5,87.5,95.0,95.0,227.5,SBD
5,Danika Ekern,,F,2009,14,USA,WI,Single-ply,F-Sj,51.30,52,72.5,80.0,85.0,85.0,35.0,37.5,40.0,40.0,85.0,92.5,100.0,100.0,225.0,SBD
1,Ellyanna Gersonde,,F,2007,16,USA,WI,Single-ply,F-Sj,53.45,57,110.0,117.5,-125.0,117.5,-55.0,55.0,60.0,60.0,112.5,-120.0,120.0,120.0,297.5,SBD
2,Kasondra Ferge,,F,2008,15,USA,WI,Single-ply,F-Sj,55.00,57,115.0,120.0,-122.5,120.0,42.5,-47.5,-47.5,42.5,117.5,122.5,-137.5,122.5,285.0,SBD
3,Uma Goradia,,F,2008,15,USA,WI,Single-ply,F-Sj,55.35,57,-97.5,97.5,-102.5,97.5,45.0,50.0,52.5,52.5,110.0,120.0,-125.0,120.0,270.0,SBD
4,Breanna Crocker,,F,2006,17,USA,WI,Single-ply,F-Sj,52.30,57,-102.5,102.5,-105.0,102.5,50.0,-55.0,-55.0,50.0,105.0,110.0,-117.5,110.0,262.5,SBD
5,Sofia Brown,,F,2008,15,USA,WI,Single-ply,F-Sj,56.25,57,92.5,-97.5,-97.5,92.5,42.5,47.5,-52.5,47.5,100.0,-112.5,-112.5,100.0,240.0,SBD
1,Hanah Seehafer,,F,2006,17,USA,WI,Single-ply,F-Sj,61.90,63,142.5,147.5,152.5,152.5,70.0,75.0,-77.5,75.0,130.0,137.5,142.5,142.5,370.0,SBD
2,Abbey Kelley,,F,2006,17,USA,WI,Single-ply,F-Sj,57.80,63,130.0,-137.5,137.5,137.5,70.0,75.0,80.0,80.0,127.5,-140.0,-145.0,127.5,345.0,SBD
3,Kylei Kullas,,F,2007,17,USA,WI,Single-ply,F-Sj,60.35,63,122.5,130.0,132.5,132.5,60.0,65.0,70.0,70.0,122.5,132.5,-145.0,132.5,335.0,SBD
4,Valentina Zizzo,,F,2006,17,USA,WI,Single-ply,F-Sj,59.60,63,97.5,105.0,112.5,112.5,55.0,60.0,62.5,62.5,102.5,112.5,120.0,120.0,295.0,SBD
1,Naomi Lukas,,F,2008,15,USA,WI,Single-ply,F-Sj,67.75,69,-122.5,122.5,130.0,130.0,60.0,-67.5,-67.5,60.0,130.0,137.5,-142.5,137.5,327.5,SBD
2,Braidy Killian,,F,2007,16,USA,WI,Single-ply,F-Sj,66.65,69,112.5,-120.0,-120.0,112.5,55.0,,,55.0,55.0,,,55.0,222.5,SBD
DQ,Sophia Hanson,,F,2008,16,USA,WI,Single-ply,F-Sj,67.10,69,-95.0,-95.0,-95.0,,47.5,52.5,-57.5,52.5,107.5,117.5,-125.0,117.5,,SBD
1,Baylee Donovan,,F,2007,17,USA,WI,Single-ply,F-Sj,71.65,76,132.5,140.0,-145.0,140.0,87.5,92.5,-97.5,92.5,150.0,160.0,165.0,165.0,397.5,SBD
2,Natalie Janke,,F,2007,16,USA,WI,Single-ply,F-Sj,71.85,76,147.5,-160.0,-160.0,147.5,60.0,67.5,75.0,75.0,150.0,160.0,-177.5,160.0,382.5,SBD
3,Elizabeth Kroll,,F,2007,16,USA,WI,Single-ply,F-Sj,73.45,76,140.0,150.0,157.5,157.5,90.0,97.5,-105.0,97.5,120.0,127.5,-140.0,127.5,382.5,SBD
4,Julia Sina,,F,2006,17,USA,WI,Single-ply,F-Sj,72.30,76,122.5,132.5,142.5,142.5,82.5,-87.5,87.5,87.5,125.0,135.0,-142.5,135.0,365.0,SBD
1,MacKenzie Wells,,F,2007,17,USA,WI,Single-ply,F-Sj,81.50,84,190.0,197.5,207.5,207.5,92.5,-97.5,97.5,97.5,185.0,192.5,-195.0,192.5,497.5,SBD
2,Alyson Turner,,F,2006,18,USA,WI,Single-ply,F-Sj,82.50,84,120.0,125.0,-130.0,125.0,60.0,62.5,65.0,65.0,100.0,115.0,-125.0,115.0,305.0,SBD
1,Jenna Austin,,F,2006,17,USA,WI,Single-ply,F-Sj,86.70,84+,165.0,-172.5,-172.5,165.0,75.0,85.0,-92.5,85.0,110.0,115.0,125.0,125.0,375.0,SBD
2,Abigail Pokorny,,F,2008,15,USA,WI,Single-ply,F-Sj,102.20,84+,120.0,127.5,-132.5,127.5,70.0,-75.0,-75.0,70.0,122.5,132.5,142.5,142.5,340.0,SBD
3,Molly Theys,,F,2006,17,USA,WI,Single-ply,F-Sj,99.50,84+,110.0,120.0,127.5,127.5,77.5,82.5,-85.0,82.5,112.5,120.0,127.5,127.5,337.5,SBD
4,Izzy Baer,,F,2007,16,USA,WI,Single-ply,F-Sj,87.15,84+,132.5,142.5,-150.0,142.5,65.0,-70.0,-70.0,65.0,110.0,117.5,-130.0,117.5,325.0,SBD
1,Lyla Stecker,,F,2006,17,USA,WI,Raw,FR-Sj,45.70,47,67.5,70.0,75.0,75.0,32.5,-37.5,-37.5,32.5,85.0,95.0,97.5,97.5,205.0,SBD
1,Kameron Delap,,F,2005,18,USA,WI,Raw,FR-Jr,60.40,63,115.0,122.5,127.5,127.5,70.0,-77.5,-77.5,70.0,-127.5,127.5,135.0,135.0,332.5,SBD
1,Hailey Tackman,,F,2006,18,USA,WI,Raw,FR-Sj,66.70,69,112.5,120.0,-125.0,120.0,40.0,45.0,47.5,47.5,110.0,120.0,127.5,127.5,295.0,SBD
1,Aracely Del Aguila,,F,2007,16,USA,WI,Raw,FR-Sj,81.25,84,120.0,125.0,130.0,130.0,65.0,-67.5,-67.5,65.0,125.0,130.0,135.0,135.0,330.0,SBD
1,Christine Moore,,F,2007,16,USA,WI,Raw,FR-Sj,108.55,84+,145.0,150.0,155.0,155.0,60.0,62.5,-65.0,62.5,127.5,-132.5,135.0,135.0,352.5,SBD
2,Anika Klawikowski,,F,2008,15,USA,WI,Raw,FR-Sj,89.10,84+,107.5,117.5,125.0,125.0,55.0,60.0,62.5,62.5,117.5,125.0,132.5,132.5,320.0,SBD
3,Stephanie Guardado Chavez,,F,2006,17,USA,WI,Raw,FR-Sj,94.25,84+,117.5,122.5,127.5,127.5,50.0,52.5,-55.0,52.5,117.5,122.5,135.0,135.0,315.0,SBD
1,Samantha Franke,,F,2005,18,USA,WI,Raw,FR-Jr,97.60,84+,-117.5,-117.5,-120.0,,55.0,57.5,60.0,60.0,117.5,122.5,130.0,130.0,190.0,SBD
4,Hannah Peters,,F,2006,17,USA,WI,Raw,FR-Sj,120.95,84+,-132.5,-135.0,-135.0,,55.0,57.5,62.5,62.5,117.5,122.5,130.0,130.0,192.5,SBD
1,Brandon Lesnik,,M,2008,15,USA,WI,Single-ply,M-Sj,52.20,53,92.5,102.5,110.0,110.0,57.5,-62.5,62.5,62.5,100.0,-105.0,105.0,105.0,277.5,SBD
1,Brandon Manthey,,M,2006,17,USA,WI,Single-ply,M-Sj,55.00,59,125.0,-137.5,-137.5,125.0,55.0,60.0,-62.5,60.0,147.5,157.5,-167.5,157.5,342.5,SBD
2,Giovanni Maccanelli,,M,2007,16,USA,WI,Single-ply,M-Sj,57.80,59,-112.5,120.0,125.0,125.0,60.0,67.5,72.5,72.5,127.5,132.5,142.5,142.5,340.0,SBD
1,Logan Young,,M,2006,17,USA,WI,Single-ply,M-Sj,73.10,74,160.0,167.5,175.0,175.0,120.0,125.0,130.0,130.0,167.5,177.5,187.5,187.5,492.5,SBD
1,Ty Felle,,M,2006,17,USA,WI,Single-ply,M-Sj,81.00,83,210.0,225.0,232.5,232.5,112.5,122.5,-130.0,122.5,200.0,220.0,-232.5,220.0,575.0,SBD
2,Tyler Conradt,,M,2008,15,USA,WI,Single-ply,M-Sj,81.00,83,-207.5,207.5,-220.0,207.5,107.5,112.5,-117.5,112.5,187.5,-197.5,-197.5,187.5,507.5,SBD
1,Jacob Kalashian,,M,2007,16,USA,WI,Single-ply,M-Sj,91.20,93,220.0,-227.5,230.0,230.0,105.0,110.0,-117.5,110.0,187.5,197.5,205.0,205.0,545.0,SBD
2,Thomas Suit,,M,2006,17,USA,WI,Single-ply,M-Sj,89.10,93,-200.0,-200.0,200.0,200.0,120.0,125.0,-130.0,125.0,187.5,197.5,212.5,212.5,537.5,SBD
1,Ariyo Sanyaolu,,M,2005,19,USA,WI,Single-ply,M-Jr,102.20,105,282.5,-295.0,-300.0,282.5,162.5,170.0,-177.5,170.0,285.0,300.0,310.0,310.0,762.5,SBD
1,Tim Kaisler,,M,2006,18,USA,WI,Single-ply,M-Sj,97.60,105,-182.5,182.5,200.0,200.0,92.5,97.5,105.0,105.0,180.0,190.0,202.5,202.5,507.5,SBD
1,Christian Ferge,,M,2007,16,USA,WI,Single-ply,M-Sj,119.80,120,-232.5,232.5,240.0,240.0,137.5,145.0,147.5,147.5,182.5,192.5,205.0,205.0,592.5,SBD
2,Andrew Grambow,,M,2006,17,USA,WI,Single-ply,M-Sj,105.20,120,-207.5,-207.5,207.5,207.5,135.0,142.5,147.5,147.5,210.0,222.5,-237.5,222.5,577.5,SBD
3,Evan Schmitt,,M,2006,17,USA,WI,Single-ply,M-Sj,118.20,120,205.0,217.5,230.0,230.0,120.0,-127.5,135.0,135.0,182.5,195.0,207.5,207.5,572.5,SBD
1,Aidan Gray,,M,2006,17,USA,WI,Single-ply,M-Sj,135.50,120+,-185.0,185.0,190.0,190.0,137.5,142.5,147.5,147.5,192.5,200.0,-210.0,200.0,537.5,SBD
1,Benjamin Clarke #2,,M,2006,17,USA,WI,Raw,MR-Sj,51.40,53,85.0,100.0,112.5,112.5,52.5,60.0,62.5,62.5,132.5,155.0,-167.5,155.0,330.0,SBD
1,Michael Lenius,,M,2007,16,USA,WI,Raw,MR-Sj,57.90,59,115.0,127.5,-137.5,127.5,65.0,72.5,-77.5,72.5,130.0,140.0,152.5,152.5,352.5,SBD
1,Luis Rivera,,M,2006,17,USA,WI,Raw,MR-Sj,73.20,74,-175.0,175.0,185.0,185.0,-102.5,105.0,107.5,107.5,185.0,195.0,205.0,205.0,497.5,SBD
2,Isaiah Johnson,,M,2006,17,USA,WI,Raw,MR-Sj,73.90,74,170.0,182.5,-190.0,182.5,97.5,105.0,-110.0,105.0,160.0,177.5,-180.0,177.5,465.0,SBD
3,Nicholas Elisius,,M,2007,17,USA,WI,Raw,MR-Sj,73.30,74,-165.0,-165.0,165.0,165.0,100.0,-102.5,-102.5,100.0,182.5,-192.5,-197.5,182.5,447.5,SBD
4,David Westphal Suarez,,M,2006,17,USA,WI,Raw,MR-Sj,71.50,74,145.0,150.0,155.0,155.0,82.5,85.0,-87.5,85.0,185.0,190.0,-227.5,190.0,430.0,SBD
1,Jai Dhawal,,M,2007,17,USA,WI,Raw,MR-Sj,87.60,93,185.0,197.5,-202.5,197.5,105.0,110.0,115.0,115.0,-185.0,-185.0,185.0,185.0,497.5,SBD
1,Ashton Fischer #2,,M,2006,17,USA,WI,Raw,MR-Sj,98.80,105,252.5,270.0,-275.0,270.0,185.0,192.5,-200.0,192.5,260.0,275.0,,275.0,737.5,SBD
2,Zuriel Lott,,M,2006,17,USA,WI,Raw,MR-Sj,103.00,105,185.0,-190.0,195.0,195.0,110.0,115.0,-120.0,115.0,192.5,200.0,207.5,207.5,517.5,SBD
3,Owen Zahm,,M,2006,17,USA,WI,Raw,MR-Sj,101.80,105,-210.0,-225.0,-227.5,,115.0,122.5,-125.0,122.5,225.0,230.0,235.0,235.0,357.5,SBD